       1.0034693e-03       8.1863863e-02       2.0629493e+00
       1.0104320e-03       8.1800179e-02       2.0634583e+00
       1.0174430e-03       8.1736074e-02       2.0639722e+00
       1.0245027e-03       8.1671544e-02       2.0644908e+00
       1.0316113e-03       8.1606587e-02       2.0650143e+00
       1.0387693e-03       8.1541201e-02       2.0655427e+00
       1.0459770e-03       8.1475382e-02       2.0660760e+00
       1.0532346e-03       8.1409130e-02       2.0666143e+00
       1.0605426e-03       8.1342441e-02       2.0671577e+00
       1.0679013e-03       8.1275312e-02       2.0677061e+00
       1.0753111e-03       8.1207742e-02       2.0682598e+00
       1.0827723e-03       8.1139727e-02       2.0688186e+00
       1.0902852e-03       8.1071265e-02       2.0693826e+00
       1.0978503e-03       8.1002354e-02       2.0699520e+00
       1.1054679e-03       8.0932991e-02       2.0705267e+00
       1.1131383e-03       8.0863173e-02       2.0711069e+00
       1.1208620e-03       8.0792898e-02       2.0716925e+00
       1.1286392e-03       8.0722164e-02       2.0722836e+00
       1.1364705e-03       8.0650967e-02       2.0728803e+00
       1.1443560e-03       8.0579306e-02       2.0734826e+00
       1.1522963e-03       8.0507178e-02       2.0740906e+00
       1.1602916e-03       8.0434579e-02       2.0747044e+00
       1.1683425e-03       8.0361509e-02       2.0753239e+00
       1.1764492e-03       8.0287963e-02       2.0759493e+00
       1.1846121e-03       8.0213939e-02       2.0765807e+00
       1.1928317e-03       8.0139435e-02       2.0772180e+00
       1.2011083e-03       8.0064449e-02       2.0778613e+00
       1.2094424e-03       7.9988977e-02       2.0785107e+00
       1.2178342e-03       7.9913017e-02       2.0791663e+00
       1.2262843e-03       7.9836566e-02       2.0798281e+00
       1.2347931e-03       7.9759623e-02       2.0804962e+00
       1.2433609e-03       7.9682183e-02       2.0811706e+00
       1.2519881e-03       7.9604245e-02       2.0818514e+00
       1.2606752e-03       7.9525806e-02       2.0825387e+00
       1.2694225e-03       7.9446863e-02       2.0832325e+00
       1.2782306e-03       7.9367414e-02       2.0839330e+00
       1.2870997e-03       7.9287456e-02       2.0846401e+00
       1.2960305e-03       7.9206986e-02       2.0853539e+00
       1.3050231e-03       7.9126003e-02       2.0860745e+00
       1.3140782e-03       7.9044502e-02       2.0868020e+00
       1.3231961e-03       7.8962482e-02       2.0875364e+00
       1.3323773e-03       7.8879940e-02       2.0882778e+00
       1.3416222e-03       7.8796874e-02       2.0890263e+00
       1.3509312e-03       7.8713280e-02       2.0897819e+00
       1.3603048e-03       7.8629156e-02       2.0905448e+00
       1.3697434e-03       7.8544500e-02       2.0913149e+00
       1.3792476e-03       7.8459308e-02       2.0920924e+00
       1.3888177e-03       7.8373579e-02       2.0928773e+00
       1.3984542e-03       7.8287309e-02       2.0936697e+00
       1.4081575e-03       7.8200497e-02       2.0944697e+00
       1.4179282e-03       7.8113139e-02       2.0952773e+00
       1.4277667e-03       7.8025233e-02       2.0960927e+00
       1.4376735e-03       7.7936775e-02       2.0969159e+00
       1.4476489e-03       7.7847765e-02       2.0977469e+00
       1.4576936e-03       7.7758199e-02       2.0985860e+00
       1.4678080e-03       7.7668074e-02       2.0994330e+00
       1.4779926e-03       7.7577388e-02       2.1002882e+00
       1.4882479e-03       7.7486138e-02       2.1011516e+00
       1.4985743e-03       7.7394322e-02       2.1020233e+00
       1.5089723e-03       7.7301937e-02       2.1029033e+00
       1.5194425e-03       7.7208980e-02       2.1037917e+00
       1.5299854e-03       7.7115450e-02       2.1046887e+00
       1.5406014e-03       7.7021343e-02       2.1055943e+00
       1.5512910e-03       7.6926657e-02       2.1065086e+00
       1.5620549e-03       7.6831390e-02       2.1074317e+00
       1.5728934e-03       7.6735538e-02       2.1083637e+00
       1.5838071e-03       7.6639100e-02       2.1093046e+00
       1.5947966e-03       7.6542073e-02       2.1102545e+00
       1.6058623e-03       7.6444454e-02       2.1112136e+00
       1.6170048e-03       7.6346241e-02       2.1121819e+00
       1.6282246e-03       7.6247432e-02       2.1131596e+00
       1.6395222e-03       7.6148023e-02       2.1141466e+00
       1.6508983e-03       7.6048014e-02       2.1151431e+00
       1.6623532e-03       7.5947400e-02       2.1161492e+00
       1.6738877e-03       7.5846180e-02       2.1171650e+00
       1.6855022e-03       7.5744352e-02       2.1181906e+00
       1.6971973e-03       7.5641912e-02       2.1192260e+00
       1.7089735e-03       7.5538859e-02       2.1202714e+00
       1.7208314e-03       7.5435191e-02       2.1213269e+00
       1.7327717e-03       7.5330904e-02       2.1223925e+00
       1.7447947e-03       7.5225997e-02       2.1234684e+00
       1.7569012e-03       7.5120467e-02       2.1245547e+00
       1.7690917e-03       7.5014312e-02       2.1256514e+00
       1.7813668e-03       7.4907529e-02       2.1267587e+00
       1.7937270e-03       7.4800118e-02       2.1278767e+00
       1.8061730e-03       7.4692074e-02       2.1290054e+00
       1.8187054e-03       7.4583397e-02       2.1301450e+00
       1.8313247e-03       7.4474083e-02       2.1312956e+00
       1.8440316e-03       7.4364131e-02       2.1324573e+00
       1.8568267e-03       7.4253538e-02       2.1336301e+00
       1.8697105e-03       7.4142303e-02       2.1348143e+00
       1.8826837e-03       7.4030423e-02       2.1360099e+00
       1.8957470e-03       7.3917897e-02       2.1372170e+00
       1.9089009e-03       7.3804721e-02       2.1384357e+00
       1.9221460e-03       7.3690895e-02       2.1396662e+00
       1.9354831e-03       7.3576416e-02       2.1409085e+00
       1.9489127e-03       7.3461282e-02       2.1421628e+00
       1.9624355e-03       7.3345491e-02       2.1434292e+00
       1.9760521e-03       7.3229041e-02       2.1447078e+00
       1.9897632e-03       7.3111931e-02       2.1459986e+00
       2.0035694e-03       7.2994158e-02       2.1473020e+00
       2.0174715e-03       7.2875721e-02       2.1486178e+00
       2.0314700e-03       7.2756618e-02       2.1499464e+00
       2.0455656e-03       7.2636847e-02       2.1512877e+00
       2.0597590e-03       7.2516407e-02       2.1526420e+00
       2.0740509e-03       7.2395295e-02       2.1540092e+00
       2.0884420e-03       7.2273510e-02       2.1553897e+00
       2.1029329e-03       7.2151050e-02       2.1567834e+00
       2.1175244e-03       7.2027915e-02       2.1581905e+00
       2.1322171e-03       7.1904101e-02       2.1596112e+00
       2.1470118e-03       7.1779608e-02       2.1610455e+00
       2.1619091e-03       7.1654434e-02       2.1624936e+00
       2.1769098e-03       7.1528578e-02       2.1639556e+00
       2.1920146e-03       7.1402039e-02       2.1654317e+00
       2.2072242e-03       7.1274814e-02       2.1669220e+00
       2.2225393e-03       7.1146903e-02       2.1684265e+00
       2.2379606e-03       7.1018304e-02       2.1699456e+00
       2.2534890e-03       7.0889016e-02       2.1714791e+00
       2.2691252e-03       7.0759038e-02       2.1730275e+00
       2.2848698e-03       7.0628368e-02       2.1745906e+00
       2.3007237e-03       7.0497006e-02       2.1761688e+00
       2.3166875e-03       7.0364951e-02       2.1777621e+00
       2.3327622e-03       7.0232201e-02       2.1793706e+00
       2.3489483e-03       7.0098755e-02       2.1809946e+00
       2.3652468e-03       6.9964613e-02       2.1826341e+00
       2.3816584e-03       6.9829774e-02       2.1842893e+00
       2.3981839e-03       6.9694236e-02       2.1859604e+00
       2.4148240e-03       6.9557999e-02       2.1876474e+00
       2.4315795e-03       6.9421063e-02       2.1893506e+00
       2.4484514e-03       6.9283426e-02       2.1910701e+00
       2.4654403e-03       6.9145088e-02       2.1928059e+00
       2.4825471e-03       6.9006048e-02       2.1945584e+00
       2.4997725e-03       6.8866307e-02       2.1963276e+00
       2.5171175e-03       6.8725862e-02       2.1981136e+00
       2.5345829e-03       6.8584714e-02       2.1999167e+00
       2.5521694e-03       6.8442863e-02       2.2017370e+00
       2.5698780e-03       6.8300309e-02       2.2035746e+00
       2.5877094e-03       6.8157050e-02       2.2054297e+00
       2.6056646e-03       6.8013087e-02       2.2073025e+00
       2.6237443e-03       6.7868420e-02       2.2091930e+00
       2.6419495e-03       6.7723048e-02       2.2111016e+00
       2.6602810e-03       6.7576972e-02       2.2130283e+00
       2.6787398e-03       6.7430192e-02       2.2149732e+00
       2.6973265e-03       6.7282707e-02       2.2169366e+00
       2.7160423e-03       6.7134519e-02       2.2189187e+00
       2.7348879e-03       6.6985627e-02       2.2209195e+00
       2.7538643e-03       6.6836031e-02       2.2229392e+00
       2.7729723e-03       6.6685732e-02       2.2249781e+00
       2.7922130e-03       6.6534731e-02       2.2270363e+00
       2.8115871e-03       6.6383028e-02       2.2291139e+00
       2.8310957e-03       6.6230623e-02       2.2312111e+00
       2.8507396e-03       6.6077517e-02       2.2333281e+00
       2.8705198e-03       6.5923712e-02       2.2354651e+00
       2.8904373e-03       6.5769207e-02       2.2376222e+00
       2.9104930e-03       6.5614003e-02       2.2397997e+00
       2.9306878e-03       6.5458102e-02       2.2419976e+00
       2.9510228e-03       6.5301505e-02       2.2442162e+00
       2.9714989e-03       6.5144212e-02       2.2464556e+00
       2.9921170e-03       6.4986225e-02       2.2487161e+00
       3.0128782e-03       6.4827545e-02       2.2509977e+00
       3.0337834e-03       6.4668174e-02       2.2533007e+00
       3.0548338e-03       6.4508112e-02       2.2556253e+00
       3.0760301e-03       6.4347362e-02       2.2579717e+00
       3.0973736e-03       6.4185924e-02       2.2603399e+00
       3.1188651e-03       6.4023801e-02       2.2627303e+00
       3.1405057e-03       6.3860994e-02       2.2651430e+00
       3.1622966e-03       6.3697505e-02       2.2675782e+00
       3.1842386e-03       6.3533335e-02       2.2700360e+00
       3.2063328e-03       6.3368488e-02       2.2725167e+00
       3.2285804e-03       6.3202964e-02       2.2750205e+00
       3.2509823e-03       6.3036766e-02       2.2775475e+00
       3.2735397e-03       6.2869897e-02       2.2800980e+00
       3.2962536e-03       6.2702358e-02       2.2826720e+00
       3.3191251e-03       6.2534152e-02       2.2852699e+00
       3.3421552e-03       6.2365281e-02       2.2878919e+00
       3.3653452e-03       6.2195748e-02       2.2905380e+00
       3.3886961e-03       6.2025555e-02       2.2932086e+00
       3.4122090e-03       6.1854706e-02       2.2959038e+00
       3.4358851e-03       6.1683202e-02       2.2986237e+00
       3.4597254e-03       6.1511048e-02       2.3013687e+00
       3.4837312e-03       6.1338245e-02       2.3041389e+00
       3.5079035e-03       6.1164798e-02       2.3069346e+00
       3.5322436e-03       6.0990708e-02       2.3097558e+00
       3.5567525e-03       6.0815980e-02       2.3126029e+00
       3.5814315e-03       6.0640617e-02       2.3154760e+00
       3.6062817e-03       6.0464622e-02       2.3183753e+00
       3.6313044e-03       6.0287999e-02       2.3213011e+00
       3.6565007e-03       6.0110751e-02       2.3242535e+00
       3.6818718e-03       5.9932882e-02       2.3272327e+00
       3.7074189e-03       5.9754397e-02       2.3302391e+00
       3.7331434e-03       5.9575297e-02       2.3332727e+00
       3.7590463e-03       5.9395589e-02       2.3363337e+00
       3.7851289e-03       5.9215276e-02       2.3394225e+00
       3.8113925e-03       5.9034361e-02       2.3425392e+00
       3.8378384e-03       5.8852850e-02       2.3456841e+00
       3.8644677e-03       5.8670746e-02       2.3488572e+00
       3.8912818e-03       5.8488055e-02       2.3520589e+00
       3.9182820e-03       5.8304780e-02       2.3552894e+00
       3.9454695e-03       5.8120926e-02       2.3585489e+00
       3.9728457e-03       5.7936499e-02       2.3618375e+00
       4.0004118e-03       5.7751502e-02       2.3651556e+00
       4.0281692e-03       5.7565941e-02       2.3685034e+00
       4.0561191e-03       5.7379821e-02       2.3718810e+00
       4.0842631e-03       5.7193147e-02       2.3752886e+00
       4.1126023e-03       5.7005924e-02       2.3787266e+00
       4.1411381e-03       5.6818157e-02       2.3821951e+00
       4.1698719e-03       5.6629852e-02       2.3856943e+00
       4.1988051e-03       5.6441014e-02       2.3892246e+00
       4.2279391e-03       5.6251649e-02       2.3927860e+00
       4.2572752e-03       5.6061763e-02       2.3963788e+00
       4.2868149e-03       5.5871360e-02       2.4000032e+00
       4.3165595e-03       5.5680448e-02       2.4036596e+00
       4.3465105e-03       5.5489032e-02       2.4073480e+00
       4.3766693e-03       5.5297118e-02       2.4110687e+00
       4.4070374e-03       5.5104712e-02       2.4148220e+00
       4.4376162e-03       5.4911820e-02       2.4186081e+00
       4.4684072e-03       5.4718449e-02       2.4224271e+00
       4.4994119e-03       5.4524606e-02       2.4262794e+00
       4.5306316e-03       5.4330295e-02       2.4301652e+00
       4.5620680e-03       5.4135525e-02       2.4340846e+00
       4.5937225e-03       5.3940301e-02       2.4380380e+00
       4.6255967e-03       5.3744631e-02       2.4420255e+00
       4.6576920e-03       5.3548522e-02       2.4460474e+00
       4.6900100e-03       5.3351979e-02       2.4501039e+00
       4.7225522e-03       5.3155011e-02       2.4541952e+00
       4.7553203e-03       5.2957624e-02       2.4583216e+00
       4.7883157e-03       5.2759825e-02       2.4624834e+00
       4.8215401e-03       5.2561623e-02       2.4666806e+00
       4.8549949e-03       5.2363023e-02       2.4709137e+00
       4.8886820e-03       5.2164033e-02       2.4751827e+00
       4.9226027e-03       5.1964662e-02       2.4794880e+00
       4.9567589e-03       5.1764916e-02       2.4838297e+00
       4.9911520e-03       5.1564803e-02       2.4882082e+00
       5.0257837e-03       5.1364331e-02       2.4926235e+00
       5.0606558e-03       5.1163507e-02       2.4970761e+00
       5.0957698e-03       5.0962340e-02       2.5015660e+00
       5.1311275e-03       5.0760838e-02       2.5060936e+00
       5.1667305e-03       5.0559007e-02       2.5106591e+00
       5.2025805e-03       5.0356858e-02       2.5152627e+00
       5.2386793e-03       5.0154397e-02       2.5199046e+00
       5.2750286e-03       4.9951633e-02       2.5245851e+00
       5.3116301e-03       4.9748574e-02       2.5293043e+00
       5.3484855e-03       4.9545229e-02       2.5340627e+00
       5.3855967e-03       4.9341606e-02       2.5388603e+00
       5.4229654e-03       4.9137713e-02       2.5436974e+00
       5.4605933e-03       4.8933560e-02       2.5485742e+00
       5.4984824e-03       4.8729154e-02       2.5534910e+00
       5.5366343e-03       4.8524504e-02       2.5584480e+00
       5.5750510e-03       4.8319619e-02       2.5634455e+00
       5.6137342e-03       4.8114509e-02       2.5684836e+00
       5.6526858e-03       4.7909181e-02       2.5735626e+00
       5.6919077e-03       4.7703644e-02       2.5786828e+00
       5.7314018e-03       4.7497908e-02       2.5838443e+00
       5.7711699e-03       4.7291982e-02       2.5890474e+00
       5.8112139e-03       4.7085874e-02       2.5942924e+00
       5.8515358e-03       4.6879593e-02       2.5995793e+00
       5.8921374e-03       4.6673150e-02       2.6049086e+00
       5.9330208e-03       4.6466553e-02       2.6102804e+00
       5.9741878e-03       4.6259810e-02       2.6156949e+00
       6.0156405e-03       4.6052933e-02       2.6211524e+00
       6.0573808e-03       4.5845929e-02       2.6266531e+00
       6.0994108e-03       4.5638808e-02       2.6321973e+00
       6.1417323e-03       4.5431580e-02       2.6377850e+00
       6.1843475e-03       4.5224253e-02       2.6434167e+00
       6.2272584e-03       4.5016838e-02       2.6490924e+00
       6.2704671e-03       4.4809344e-02       2.6548125e+00
       6.3139756e-03       4.4601781e-02       2.6605771e+00
       6.3577859e-03       4.4394157e-02       2.6663864e+00
       6.4019002e-03       4.4186482e-02       2.6722408e+00
       6.4463207e-03       4.3978767e-02       2.6781403e+00
       6.4910493e-03       4.3771020e-02       2.6840853e+00
       6.5360883e-03       4.3563251e-02       2.6900760e+00
       6.5814398e-03       4.3355471e-02       2.6961125e+00
       6.6271060e-03       4.3147688e-02       2.7021950e+00
       6.6730890e-03       4.2939911e-02       2.7083239e+00
       6.7193911e-03       4.2732152e-02       2.7144993e+00
       6.7660145e-03       4.2524420e-02       2.7207213e+00
       6.8129614e-03       4.2316723e-02       2.7269904e+00
       6.8602340e-03       4.2109073e-02       2.7333065e+00
       6.9078347e-03       4.1901478e-02       2.7396700e+00
       6.9557656e-03       4.1693948e-02       2.7460811e+00
       7.0040291e-03       4.1486493e-02       2.7525399e+00
       7.0526275e-03       4.1279124e-02       2.7590467e+00
       7.1015630e-03       4.1071848e-02       2.7656017e+00
       7.1508382e-03       4.0864677e-02       2.7722051e+00
       7.2004552e-03       4.0657619e-02       2.7788570e+00
       7.2504165e-03       4.0450685e-02       2.7855577e+00
       7.3007245e-03       4.0243884e-02       2.7923074e+00
       7.3513815e-03       4.0037225e-02       2.7991062e+00
       7.4023900e-03       3.9830719e-02       2.8059544e+00
       7.4537525e-03       3.9624375e-02       2.8128522e+00
       7.5054713e-03       3.9418202e-02       2.8197997e+00
       7.5575490e-03       3.9212210e-02       2.8267971e+00
       7.6099881e-03       3.9006409e-02       2.8338447e+00
       7.6627910e-03       3.8800809e-02       2.8409426e+00
       7.7159603e-03       3.8595417e-02       2.8480910e+00
       7.7694985e-03       3.8390245e-02       2.8552900e+00
       7.8234082e-03       3.8185302e-02       2.8625399e+00
       7.8776919e-03       3.7980596e-02       2.8698408e+00
       7.9323523e-03       3.7776137e-02       2.8771930e+00
       7.9873920e-03       3.7571935e-02       2.8845965e+00
       8.0428136e-03       3.7367999e-02       2.8920515e+00
       8.0986197e-03       3.7164338e-02       2.8995583e+00
       8.1548130e-03       3.6960961e-02       2.9071170e+00
       8.2113963e-03       3.6757877e-02       2.9147277e+00
       8.2683721e-03       3.6555096e-02       2.9223907e+00
       8.3257433e-03       3.6352627e-02       2.9301060e+00
       8.3835126e-03       3.6150478e-02       2.9378739e+00
       8.4416827e-03       3.5948658e-02       2.9456944e+00
       8.5002564e-03       3.5747177e-02       2.9535678e+00
       8.5592365e-03       3.5546043e-02       2.9614942e+00
       8.6186259e-03       3.5345265e-02       2.9694737e+00
       8.6784274e-03       3.5144852e-02       2.9775065e+00
       8.7386438e-03       3.4944812e-02       2.9855927e+00
       8.7992780e-03       3.4745154e-02       2.9937325e+00
       8.8603330e-03       3.4545887e-02       3.0019260e+00
       8.9218116e-03       3.4347018e-02       3.0101734e+00
       8.9837167e-03       3.4148557e-02       3.0184747e+00
       9.0460514e-03       3.3950512e-02       3.0268301e+00
       9.1088186e-03       3.3752890e-02       3.0352397e+00
       9.1720214e-03       3.3555701e-02       3.0437037e+00
       9.2356626e-03       3.3358952e-02       3.0522222e+00
       9.2997455e-03       3.3162652e-02       3.0607952e+00
       9.3642730e-03       3.2966807e-02       3.0694229e+00
       9.4292483e-03       3.2771427e-02       3.0781055e+00
       9.4946743e-03       3.2576519e-02       3.0868429e+00
       9.5605544e-03       3.2382091e-02       3.0956354e+00
       9.6268915e-03       3.2188150e-02       3.1044830e+00
       9.6936890e-03       3.1994705e-02       3.1133858e+00
       9.7609499e-03       3.1801761e-02       3.1223439e+00
       9.8286776e-03       3.1609328e-02       3.1313575e+00
       9.8968751e-03       3.1417412e-02       3.1404265e+00
       9.9655459e-03       3.1226020e-02       3.1495511e+00
       1.0034693e-02       3.1035160e-02       3.1587313e+00
       1.0104320e-02       3.0844839e-02       3.1679673e+00
       1.0174430e-02       3.0655063e-02       3.1772591e+00
       1.0245027e-02       3.0465840e-02       3.1866067e+00
       1.0316113e-02       3.0277176e-02       3.1960103e+00
       1.0387693e-02       3.0089078e-02       3.2054699e+00
       1.0459770e-02       2.9901553e-02       3.2149856e+00
       1.0532346e-02       2.9714607e-02       3.2245573e+00
       1.0605426e-02       2.9528247e-02       3.2341853e+00
       1.0679013e-02       2.9342478e-02       3.2438694e+00
       1.0753111e-02       2.9157308e-02       3.2536098e+00
       1.0827723e-02       2.8972742e-02       3.2634064e+00
       1.0902852e-02       2.8788786e-02       3.2732594e+00
       1.0978503e-02       2.8605446e-02       3.2831688e+00
       1.1054679e-02       2.8422729e-02       3.2931345e+00
       1.1131383e-02       2.8240639e-02       3.3031566e+00
       1.1208620e-02       2.8059182e-02       3.3132351e+00
       1.1286392e-02       2.7878365e-02       3.3233701e+00
       1.1364705e-02       2.7698192e-02       3.3335615e+00
       1.1443560e-02       2.7518669e-02       3.3438093e+00
       1.1522963e-02       2.7339801e-02       3.3541136e+00
       1.1602916e-02       2.7161593e-02       3.3644743e+00
       1.1683425e-02       2.6984050e-02       3.3748914e+00
       1.1764492e-02       2.6807177e-02       3.3853650e+00
       1.1846121e-02       2.6630979e-02       3.3958949e+00
       1.1928317e-02       2.6455460e-02       3.4064812e+00
       1.2011083e-02       2.6280626e-02       3.4171238e+00
       1.2094424e-02       2.6106481e-02       3.4278227e+00
       1.2178342e-02       2.5933028e-02       3.4385779e+00
       1.2262843e-02       2.5760274e-02       3.4493893e+00
       1.2347931e-02       2.5588220e-02       3.4602569e+00
       1.2433609e-02       2.5416873e-02       3.4711806e+00
       1.2519881e-02       2.5246236e-02       3.4821604e+00
       1.2606752e-02       2.5076312e-02       3.4931961e+00
       1.2694225e-02       2.4907105e-02       3.5042878e+00
       1.2782306e-02       2.4738620e-02       3.5154354e+00
       1.2870997e-02       2.4570860e-02       3.5266387e+00
       1.2960305e-02       2.4403827e-02       3.5378977e+00
       1.3050231e-02       2.4237527e-02       3.5492123e+00
       1.3140782e-02       2.4071961e-02       3.5605823e+00
       1.3231961e-02       2.3907133e-02       3.5720078e+00
       1.3323773e-02       2.3743047e-02       3.5834886e+00
       1.3416222e-02       2.3579704e-02       3.5950246e+00
       1.3509312e-02       2.3417109e-02       3.6066156e+00
       1.3603048e-02       2.3255263e-02       3.6182616e+00
       1.3697434e-02       2.3094170e-02       3.6299624e+00
       1.3792476e-02       2.2933831e-02       3.6417178e+00
       1.3888177e-02       2.2774250e-02       3.6535278e+00
       1.3984542e-02       2.2615429e-02       3.6653922e+00
       1.4081575e-02       2.2457370e-02       3.6773108e+00
       1.4179282e-02       2.2300075e-02       3.6892835e+00
       1.4277667e-02       2.2143547e-02       3.7013102e+00
       1.4376735e-02       2.1987787e-02       3.7133905e+00
       1.4476489e-02       2.1832797e-02       3.7255244e+00
       1.4576936e-02       2.1678579e-02       3.7377117e+00
       1.4678080e-02       2.1525134e-02       3.7499522e+00
       1.4779926e-02       2.1372465e-02       3.7622457e+00
       1.4882479e-02       2.1220573e-02       3.7745921e+00
       1.4985743e-02       2.1069459e-02       3.7869909e+00
       1.5089723e-02       2.0919124e-02       3.7994422e+00
       1.5194425e-02       2.0769570e-02       3.8119457e+00
       1.5299854e-02       2.0620797e-02       3.8245010e+00
       1.5406014e-02       2.0472808e-02       3.8371081e+00
       1.5512910e-02       2.0325602e-02       3.8497666e+00
       1.5620549e-02       2.0179181e-02       3.8624763e+00
       1.5728934e-02       2.0033545e-02       3.8752370e+00
       1.5838071e-02       1.9888695e-02       3.8880484e+00
       1.5947966e-02       1.9744632e-02       3.9009103e+00
       1.6058623e-02       1.9601356e-02       3.9138223e+00
       1.6170048e-02       1.9458868e-02       3.9267841e+00
       1.6282246e-02       1.9317167e-02       3.9397956e+00
       1.6395222e-02       1.9176255e-02       3.9528564e+00
       1.6508983e-02       1.9036131e-02       3.9659662e+00
       1.6623532e-02       1.8896795e-02       3.9791247e+00
       1.6738877e-02       1.8758248e-02       3.9923315e+00
       1.6855022e-02       1.8620489e-02       4.0055864e+00
       1.6971973e-02       1.8483519e-02       4.0188891e+00
       1.7089735e-02       1.8347336e-02       4.0322392e+00
       1.7208314e-02       1.8211941e-02       4.0456363e+00
       1.7327717e-02       1.8077333e-02       4.0590801e+00
       1.7447947e-02       1.7943511e-02       4.0725703e+00
       1.7569012e-02       1.7810476e-02       4.0861065e+00
       1.7690917e-02       1.7678227e-02       4.0996883e+00
       1.7813668e-02       1.7546763e-02       4.1133154e+00
       1.7937270e-02       1.7416082e-02       4.1269873e+00
       1.8061730e-02       1.7286185e-02       4.1407036e+00
       1.8187054e-02       1.7157071e-02       4.1544641e+00
       1.8313247e-02       1.7028738e-02       4.1682682e+00
       1.8440316e-02       1.6901185e-02       4.1821156e+00
       1.8568267e-02       1.6774412e-02       4.1960057e+00
       1.8697105e-02       1.6648417e-02       4.2099383e+00
       1.8826837e-02       1.6523198e-02       4.2239129e+00
       1.8957470e-02       1.6398756e-02       4.2379289e+00
       1.9089009e-02       1.6275087e-02       4.2519861e+00
       1.9221460e-02       1.6152192e-02       4.2660838e+00
       1.9354831e-02       1.6030068e-02       4.2802217e+00
       1.9489127e-02       1.5908713e-02       4.2943993e+00
       1.9624355e-02       1.5788127e-02       4.3086161e+00
       1.9760521e-02       1.5668307e-02       4.3228715e+00
       1.9897632e-02       1.5549252e-02       4.3371652e+00
       2.0035694e-02       1.5430960e-02       4.3514966e+00
       2.0174715e-02       1.5313430e-02       4.3658651e+00
       2.0314700e-02       1.5196658e-02       4.3802704e+00
       2.0455656e-02       1.5080644e-02       4.3947118e+00
       2.0597590e-02       1.4965386e-02       4.4091888e+00
       2.0740509e-02       1.4850880e-02       4.4237009e+00
       2.0884420e-02       1.4737126e-02       4.4382475e+00
       2.1029329e-02       1.4624122e-02       4.4528281e+00
       2.1175244e-02       1.4511864e-02       4.4674421e+00
       2.1322171e-02       1.4400350e-02       4.4820889e+00
       2.1470118e-02       1.4289579e-02       4.4967680e+00
       2.1619091e-02       1.4179549e-02       4.5114788e+00
       2.1769098e-02       1.4070256e-02       4.5262207e+00
       2.1920146e-02       1.3961698e-02       4.5409930e+00
       2.2072242e-02       1.3853873e-02       4.5557952e+00
       2.2225393e-02       1.3746778e-02       4.5706266e+00
       2.2379606e-02       1.3640411e-02       4.5854867e+00
       2.2534890e-02       1.3534770e-02       4.6003748e+00
       2.2691252e-02       1.3429851e-02       4.6152902e+00
       2.2848698e-02       1.3325651e-02       4.6302324e+00
       2.3007237e-02       1.3222170e-02       4.6452006e+00
       2.3166875e-02       1.3119402e-02       4.6601942e+00
       2.3327622e-02       1.3017347e-02       4.6752126e+00
       2.3489483e-02       1.2916000e-02       4.6902550e+00
       2.3652468e-02       1.2815359e-02       4.7053208e+00
       2.3816584e-02       1.2715422e-02       4.7204093e+00
       2.3981839e-02       1.2616185e-02       4.7355198e+00
       2.4148240e-02       1.2517646e-02       4.7506515e+00
       2.4315795e-02       1.2419801e-02       4.7658039e+00
       2.4484514e-02       1.2322647e-02       4.7809761e+00
       2.4654403e-02       1.2226182e-02       4.7961674e+00
       2.4825471e-02       1.2130403e-02       4.8113772e+00
       2.4997725e-02       1.2035306e-02       4.8266046e+00
       2.5171175e-02       1.1940888e-02       4.8418489e+00
       2.5345829e-02       1.1847146e-02       4.8571094e+00
       2.5521694e-02       1.1754078e-02       4.8723853e+00
       2.5698780e-02       1.1661679e-02       4.8876758e+00
       2.5877094e-02       1.1569947e-02       4.9029803e+00
       2.6056646e-02       1.1478878e-02       4.9182978e+00
       2.6237443e-02       1.1388470e-02       4.9336276e+00
       2.6419495e-02       1.1298719e-02       4.9489690e+00
       2.6602810e-02       1.1209621e-02       4.9643210e+00
       2.6787398e-02       1.1121174e-02       4.9796830e+00
       2.6973265e-02       1.1033374e-02       4.9950541e+00
       2.7160423e-02       1.0946218e-02       5.0104335e+00
       2.7348879e-02       1.0859703e-02       5.0258203e+00
       2.7538643e-02       1.0773824e-02       5.0412138e+00
       2.7729723e-02       1.0688580e-02       5.0566132e+00
       2.7922130e-02       1.0603965e-02       5.0720174e+00
       2.8115871e-02       1.0519978e-02       5.0874259e+00
       2.8310957e-02       1.0436615e-02       5.1028376e+00
       2.8507396e-02       1.0353871e-02       5.1182517e+00
       2.8705198e-02       1.0271745e-02       5.1336674e+00
       2.8904373e-02       1.0190231e-02       5.1490838e+00
       2.9104930e-02       1.0109328e-02       5.1645000e+00
       2.9306878e-02       1.0029031e-02       5.1799152e+00
       2.9510228e-02       9.9493366e-03       5.1953285e+00
       2.9714989e-02       9.8702418e-03       5.2107389e+00
       2.9921170e-02       9.7917431e-03       5.2261457e+00
       3.0128782e-02       9.7138368e-03       5.2415479e+00
       3.0337834e-02       9.6365195e-03       5.2569446e+00
       3.0548338e-02       9.5597877e-03       5.2723349e+00
       3.0760301e-02       9.4836378e-03       5.2877180e+00
       3.0973736e-02       9.4080664e-03       5.3030928e+00
       3.1188651e-02       9.3330698e-03       5.3184586e+00
       3.1405057e-02       9.2586447e-03       5.3338143e+00
       3.1622966e-02       9.1847874e-03       5.3491591e+00
       3.1842386e-02       9.1114945e-03       5.3644920e+00
       3.2063328e-02       9.0387623e-03       5.3798122e+00
       3.2285804e-02       8.9665874e-03       5.3951187e+00
       3.2509823e-02       8.8949662e-03       5.4104105e+00
       3.2735397e-02       8.8238952e-03       5.4256868e+00
       3.2962536e-02       8.7533709e-03       5.4409465e+00
       3.3191251e-02       8.6833897e-03       5.4561889e+00
       3.3421552e-02       8.6139480e-03       5.4714128e+00
       3.3653452e-02       8.5450424e-03       5.4866175e+00
       3.3886961e-02       8.4766693e-03       5.5018019e+00
       3.4122090e-02       8.4088252e-03       5.5169651e+00
       3.4358851e-02       8.3415065e-03       5.5321063e+00
       3.4597254e-02       8.2747098e-03       5.5472243e+00
       3.4837312e-02       8.2084314e-03       5.5623183e+00
       3.5079035e-02       8.1426679e-03       5.5773874e+00
       3.5322436e-02       8.0774158e-03       5.5924306e+00
       3.5567525e-02       8.0126716e-03       5.6074469e+00
       3.5814315e-02       7.9484317e-03       5.6224355e+00
       3.6062817e-02       7.8846926e-03       5.6373953e+00
       3.6313044e-02       7.8214509e-03       5.6523255e+00
       3.6565007e-02       7.7587030e-03       5.6672250e+00
       3.6818718e-02       7.6964455e-03       5.6820931e+00
       3.7074189e-02       7.6346750e-03       5.6969286e+00
       3.7331434e-02       7.5733878e-03       5.7117307e+00
       3.7590463e-02       7.5125807e-03       5.7264985e+00
       3.7851289e-02       7.4522500e-03       5.7412311e+00
       3.8113925e-02       7.3923925e-03       5.7559274e+00
       3.8378384e-02       7.3330045e-03       5.7705866e+00
       3.8644677e-02       7.2740828e-03       5.7852077e+00
       3.8912818e-02       7.2156239e-03       5.7997899e+00
       3.9182820e-02       7.1576243e-03       5.8143322e+00
       3.9454695e-02       7.1000807e-03       5.8288338e+00
       3.9728457e-02       7.0429898e-03       5.8432936e+00
       4.0004118e-02       6.9863480e-03       5.8577108e+00
       4.0281692e-02       6.9301520e-03       5.8720846e+00
       4.0561191e-02       6.8743986e-03       5.8864139e+00
       4.0842631e-02       6.8190842e-03       5.9006980e+00
       4.1126023e-02       6.7642057e-03       5.9149360e+00
       4.1411381e-02       6.7097596e-03       5.9291269e+00
       4.1698719e-02       6.6557427e-03       5.9432699e+00
       4.1988051e-02       6.6021516e-03       5.9573642e+00
       4.2279391e-02       6.5489831e-03       5.9714089e+00
       4.2572752e-02       6.4962339e-03       5.9854031e+00
       4.2868149e-02       6.4439007e-03       5.9993460e+00
       4.3165595e-02       6.3919803e-03       6.0132368e+00
       4.3465105e-02       6.3404694e-03       6.0270746e+00
       4.3766693e-02       6.2893648e-03       6.0408587e+00
       4.4070374e-02       6.2386633e-03       6.0545882e+00
       4.4376162e-02       6.1883617e-03       6.0682623e+00
       4.4684072e-02       6.1384568e-03       6.0818802e+00
       4.4994119e-02       6.0889455e-03       6.0954412e+00
       4.5306316e-02       6.0398246e-03       6.1089445e+00
       4.5620680e-02       5.9910909e-03       6.1223893e+00
       4.5937225e-02       5.9427413e-03       6.1357749e+00
       4.6255967e-02       5.8947728e-03       6.1491005e+00
       4.6576920e-02       5.8471822e-03       6.1623654e+00
       4.6900100e-02       5.7999664e-03       6.1755689e+00
       4.7225522e-02       5.7531224e-03       6.1887103e+00
       4.7553203e-02       5.7066472e-03       6.2017888e+00
       4.7883157e-02       5.6605376e-03       6.2148039e+00
       4.8215401e-02       5.6147907e-03       6.2277548e+00
       4.8549949e-02       5.5694035e-03       6.2406409e+00
       4.8886820e-02       5.5243730e-03       6.2534615e+00
       4.9226027e-02       5.4796963e-03       6.2662160e+00
       4.9567589e-02       5.4353703e-03       6.2789039e+00
       4.9911520e-02       5.3913922e-03       6.2915243e+00
       5.0257837e-02       5.3477590e-03       6.3040769e+00
       5.0606558e-02       5.3044678e-03       6.3165610e+00
       5.0957698e-02       5.2615158e-03       6.3289761e+00
       5.1311275e-02       5.2189000e-03       6.3413215e+00
       5.1667305e-02       5.1766178e-03       6.3535969e+00
       5.2025805e-02       5.1346661e-03       6.3658016e+00
       5.2386793e-02       5.0930422e-03       6.3779351e+00
       5.2750286e-02       5.0517433e-03       6.3899970e+00
       5.3116301e-02       5.0107667e-03       6.4019869e+00
       5.3484855e-02       4.9701095e-03       6.4139042e+00
       5.3855967e-02       4.9297691e-03       6.4257484e+00
       5.4229654e-02       4.8897426e-03       6.4375193e+00
       5.4605933e-02       4.8500275e-03       6.4492164e+00
       5.4984824e-02       4.8106211e-03       6.4608392e+00
       5.5366343e-02       4.7715205e-03       6.4723875e+00
       5.5750510e-02       4.7327233e-03       6.4838609e+00
       5.6137342e-02       4.6942268e-03       6.4952590e+00
       5.6526858e-02       4.6560284e-03       6.5065815e+00
       5.6919077e-02       4.6181255e-03       6.5178281e+00
       5.7314018e-02       4.5805155e-03       6.5289986e+00
       5.7711699e-02       4.5431960e-03       6.5400926e+00
       5.8112139e-02       4.5061642e-03       6.5511100e+00
       5.8515358e-02       4.4694178e-03       6.5620504e+00
       5.8921374e-02       4.4329543e-03       6.5729137e+00
       5.9330208e-02       4.3967712e-03       6.5836997e+00
       5.9741878e-02       4.3608660e-03       6.5944081e+00
       6.0156405e-02       4.3252363e-03       6.6050389e+00
       6.0573808e-02       4.2898797e-03       6.6155919e+00
       6.0994108e-02       4.2547939e-03       6.6260670e+00
       6.1417323e-02       4.2199763e-03       6.6364641e+00
       6.1843475e-02       4.1854248e-03       6.6467830e+00
       6.2272584e-02       4.1511370e-03       6.6570238e+00
       6.2704671e-02       4.1171105e-03       6.6671863e+00
       6.3139756e-02       4.0833431e-03       6.6772705e+00
       6.3577859e-02       4.0498325e-03       6.6872765e+00
       6.4019002e-02       4.0165765e-03       6.6972041e+00
       6.4463207e-02       3.9835729e-03       6.7070535e+00
       6.4910493e-02       3.9508194e-03       6.7168247e+00
       6.5360883e-02       3.9183139e-03       6.7265177e+00
       6.5814398e-02       3.8860541e-03       6.7361325e+00
       6.6271060e-02       3.8540381e-03       6.7456694e+00
       6.6730890e-02       3.8222636e-03       6.7551284e+00
       6.7193911e-02       3.7907285e-03       6.7645095e+00
       6.7660145e-02       3.7594309e-03       6.7738130e+00
       6.8129614e-02       3.7283686e-03       6.7830390e+00
       6.8602340e-02       3.6975396e-03       6.7921876e+00
       6.9078347e-02       3.6669418e-03       6.8012591e+00
       6.9557656e-02       3.6365734e-03       6.8102537e+00
       7.0040291e-02       3.6064324e-03       6.8191715e+00
       7.0526275e-02       3.5765167e-03       6.8280127e+00
       7.1015630e-02       3.5468245e-03       6.8367777e+00
       7.1508382e-02       3.5173538e-03       6.8454667e+00
       7.2004552e-02       3.4881029e-03       6.8540799e+00
       7.2504165e-02       3.4590698e-03       6.8626176e+00
       7.3007245e-02       3.4302527e-03       6.8710802e+00
       7.3513815e-02       3.4016497e-03       6.8794678e+00
       7.4023900e-02       3.3732592e-03       6.8877809e+00
       7.4537525e-02       3.3450793e-03       6.8960198e+00
       7.5054713e-02       3.3171082e-03       6.9041847e+00
       7.5575490e-02       3.2893443e-03       6.9122760e+00
       7.6099881e-02       3.2617858e-03       6.9202942e+00
       7.6627910e-02       3.2344311e-03       6.9282395e+00
       7.7159603e-02       3.2072785e-03       6.9361123e+00
       7.7694985e-02       3.1803263e-03       6.9439130e+00
       7.8234082e-02       3.1535730e-03       6.9516419e+00
       7.8776919e-02       3.1270169e-03       6.9592996e+00
       7.9323523e-02       3.1006565e-03       6.9668863e+00
       7.9873920e-02       3.0744901e-03       6.9744024e+00
       8.0428136e-02       3.0485164e-03       6.9818484e+00
       8.0986197e-02       3.0227337e-03       6.9892247e+00
       8.1548130e-02       2.9971405e-03       6.9965316e+00
       8.2113963e-02       2.9717355e-03       7.0037696e+00
       8.2683721e-02       2.9465171e-03       7.0109391e+00
       8.3257433e-02       2.9214839e-03       7.0180404e+00
       8.3835126e-02       2.8966345e-03       7.0250741e+00
       8.4416827e-02       2.8719676e-03       7.0320405e+00
       8.5002564e-02       2.8474817e-03       7.0389400e+00
       8.5592365e-02       2.8231755e-03       7.0457730e+00
       8.6186259e-02       2.7990477e-03       7.0525399e+00
       8.6784274e-02       2.7750970e-03       7.0592411e+00
       8.7386438e-02       2.7513221e-03       7.0658770e+00
       8.7992780e-02       2.7277217e-03       7.0724479e+00
       8.8603330e-02       2.7042945e-03       7.0789543e+00
       8.9218116e-02       2.6810395e-03       7.0853965e+00
       8.9837167e-02       2.6579552e-03       7.0917748e+00
       9.0460514e-02       2.6350406e-03       7.0980897e+00
       9.1088186e-02       2.6122945e-03       7.1043413e+00
       9.1720214e-02       2.5897158e-03       7.1105301e+00
       9.2356626e-02       2.5673032e-03       7.1166564e+00
       9.2997455e-02       2.5450557e-03       7.1227204e+00
       9.3642730e-02       2.5229721e-03       7.1287224e+00
       9.4292483e-02       2.5010515e-03       7.1346628e+00
       9.4946743e-02       2.4792927e-03       7.1405417e+00
       9.5605544e-02       2.4576947e-03       7.1463594e+00
       9.6268915e-02       2.4362564e-03       7.1521160e+00
       9.6936890e-02       2.4149769e-03       7.1578119e+00
       9.7609499e-02       2.3938551e-03       7.1634471e+00
       9.8286776e-02       2.3728900e-03       7.1690219e+00
       9.8968751e-02       2.3520808e-03       7.1745363e+00
       9.9655459e-02       2.3314264e-03       7.1799905e+00
       1.0034693e-01       2.3109259e-03       7.1853845e+00
       1.0104320e-01       2.2905784e-03       7.1907185e+00
       1.0174430e-01       2.2703829e-03       7.1959925e+00
       1.0245027e-01       2.2503387e-03       7.2012065e+00
       1.0316113e-01       2.2304447e-03       7.2063605e+00
       1.0387693e-01       2.2107001e-03       7.2114544e+00
       1.0459770e-01       2.1911042e-03       7.2164883e+00
       1.0532346e-01       2.1716559e-03       7.2214621e+00
       1.0605426e-01       2.1523546e-03       7.2263755e+00
       1.0679013e-01       2.1331993e-03       7.2312286e+00
       1.0753111e-01       2.1141893e-03       7.2360211e+00
       1.0827723e-01       2.0953238e-03       7.2407529e+00
       1.0902852e-01       2.0766020e-03       7.2454237e+00
       1.0978503e-01       2.0580230e-03       7.2500332e+00
       1.1054679e-01       2.0395863e-03       7.2545813e+00
       1.1131383e-01       2.0212909e-03       7.2590676e+00
       1.1208620e-01       2.0031361e-03       7.2634917e+00
       1.1286392e-01       1.9851212e-03       7.2678533e+00
       1.1364705e-01       1.9672455e-03       7.2721521e+00
       1.1443560e-01       1.9495082e-03       7.2763875e+00
       1.1522963e-01       1.9319087e-03       7.2805591e+00
       1.1602916e-01       1.9144461e-03       7.2846665e+00
       1.1683425e-01       1.8971199e-03       7.2887091e+00
       1.1764492e-01       1.8799292e-03       7.2926865e+00
       1.1846121e-01       1.8628735e-03       7.2965979e+00
       1.1928317e-01       1.8459520e-03       7.3004429e+00
       1.2011083e-01       1.8291640e-03       7.3042208e+00
       1.2094424e-01       1.8125088e-03       7.3079310e+00
       1.2178342e-01       1.7959859e-03       7.3115727e+00
       1.2262843e-01       1.7795944e-03       7.3151453e+00
       1.2347931e-01       1.7633338e-03       7.3186480e+00
       1.2433609e-01       1.7472034e-03       7.3220802e+00
       1.2519881e-01       1.7312025e-03       7.3254409e+00
       1.2606752e-01       1.7153304e-03       7.3287294e+00
       1.2694225e-01       1.6995866e-03       7.3319450e+00
       1.2782306e-01       1.6839702e-03       7.3350866e+00
       1.2870997e-01       1.6684808e-03       7.3381535e+00
       1.2960305e-01       1.6531175e-03       7.3411448e+00
       1.3050231e-01       1.6378798e-03       7.3440596e+00
       1.3140782e-01       1.6227670e-03       7.3468970e+00
       1.3231961e-01       1.6077785e-03       7.3496559e+00
       1.3323773e-01       1.5929135e-03       7.3523355e+00
       1.3416222e-01       1.5781715e-03       7.3549349e+00
       1.3509312e-01       1.5635517e-03       7.3574530e+00
       1.3603048e-01       1.5490536e-03       7.3598888e+00
       1.3697434e-01       1.5346764e-03       7.3622414e+00
       1.3792476e-01       1.5204194e-03       7.3645097e+00
       1.3888177e-01       1.5062821e-03       7.3666928e+00
       1.3984542e-01       1.4922637e-03       7.3687897e+00
       1.4081575e-01       1.4783636e-03       7.3707993e+00
       1.4179282e-01       1.4645811e-03       7.3727207e+00
       1.4277667e-01       1.4509154e-03       7.3745528e+00
       1.4376735e-01       1.4373660e-03       7.3762946e+00
       1.4476489e-01       1.4239322e-03       7.3779452e+00
       1.4576936e-01       1.4106132e-03       7.3795035e+00
       1.4678080e-01       1.3974083e-03       7.3809687e+00
       1.4779926e-01       1.3843169e-03       7.3823396e+00
       1.4882479e-01       1.3713383e-03       7.3836155e+00
       1.4985743e-01       1.3584717e-03       7.3847953e+00
       1.5089723e-01       1.3457164e-03       7.3858782e+00
       1.5194425e-01       1.3330717e-03       7.3868632e+00
       1.5299854e-01       1.3205370e-03       7.3877495e+00
       1.5406014e-01       1.3081114e-03       7.3885363e+00
       1.5512910e-01       1.2957943e-03       7.3892228e+00
       1.5620549e-01       1.2835849e-03       7.3898081e+00
       1.5728934e-01       1.2714825e-03       7.3902915e+00
       1.5838071e-01       1.2594863e-03       7.3906724e+00
       1.5947966e-01       1.2475956e-03       7.3909499e+00
       1.6058623e-01       1.2358097e-03       7.3911236e+00
       1.6170048e-01       1.2241277e-03       7.3911928e+00
       1.6282246e-01       1.2125490e-03       7.3911569e+00
       1.6395222e-01       1.2010727e-03       7.3910155e+00
       1.6508983e-01       1.1896981e-03       7.3907681e+00
       1.6623532e-01       1.1784244e-03       7.3904142e+00
       1.6738877e-01       1.1672509e-03       7.3899535e+00
       1.6855022e-01       1.1561768e-03       7.3893857e+00
       1.6971973e-01       1.1452012e-03       7.3887106e+00
       1.7089735e-01       1.1343235e-03       7.3879279e+00
       1.7208314e-01       1.1235427e-03       7.3870375e+00
       1.7327717e-01       1.1128582e-03       7.3860393e+00
       1.7447947e-01       1.1022691e-03       7.3849333e+00
       1.7569012e-01       1.0917747e-03       7.3837196e+00
       1.7690917e-01       1.0813740e-03       7.3823982e+00
       1.7813668e-01       1.0710665e-03       7.3809693e+00
       1.7937270e-01       1.0608511e-03       7.3794331e+00
       1.8061730e-01       1.0507272e-03       7.3777900e+00
       1.8187054e-01       1.0406939e-03       7.3760403e+00
       1.8313247e-01       1.0307505e-03       7.3741844e+00
       1.8440316e-01       1.0208961e-03       7.3722228e+00
       1.8568267e-01       1.0111298e-03       7.3701561e+00
       1.8697105e-01       1.0014511e-03       7.3679850e+00
       1.8826837e-01       9.9185887e-04       7.3657101e+00
       1.8957470e-01       9.8235250e-04       7.3633321e+00
       1.9089009e-01       9.7293114e-04       7.3608520e+00
       1.9221460e-01       9.6359398e-04       7.3582707e+00
       1.9354831e-01       9.5434025e-04       7.3555890e+00
       1.9489127e-01       9.4516913e-04       7.3528080e+00
       1.9624355e-01       9.3607985e-04       7.3499289e+00
       1.9760521e-01       9.2707161e-04       7.3469527e+00
       1.9897632e-01       9.1814363e-04       7.3438806e+00
       2.0035694e-01       9.0929513e-04       7.3407141e+00
       2.0174715e-01       9.0052534e-04       7.3374543e+00
       2.0314700e-01       8.9183349e-04       7.3341026e+00
       2.0455656e-01       8.8321881e-04       7.3306606e+00
       2.0597590e-01       8.7468055e-04       7.3271297e+00
       2.0740509e-01       8.6621795e-04       7.3235113e+00
       2.0884420e-01       8.5783027e-04       7.3198071e+00
       2.1029329e-01       8.4951677e-04       7.3160188e+00
       2.1175244e-01       8.4127672e-04       7.3121479e+00
       2.1322171e-01       8.3310939e-04       7.3081961e+00
       2.1470118e-01       8.2501408e-04       7.3041652e+00
       2.1619091e-01       8.1699007e-04       7.3000569e+00
       2.1769098e-01       8.0903667e-04       7.2958730e+00
       2.1920146e-01       8.0115319e-04       7.2916152e+00
       2.2072242e-01       7.9333894e-04       7.2872854e+00
       2.2225393e-01       7.8559327e-04       7.2828853e+00
       2.2379606e-01       7.7791551e-04       7.2784169e+00
       2.2534890e-01       7.7030502e-04       7.2738818e+00
       2.2691252e-01       7.6276115e-04       7.2692819e+00
       2.2848698e-01       7.5528327e-04       7.2646191e+00
       2.3007237e-01       7.4787079e-04       7.2598951e+00
       2.3166875e-01       7.4052308e-04       7.2551116e+00
       2.3327622e-01       7.3323955e-04       7.2502705e+00
       2.3489483e-01       7.2601963e-04       7.2453734e+00
       2.3652468e-01       7.1886275e-04       7.2404221e+00
       2.3816584e-01       7.1176834e-04       7.2354182e+00
       2.3981839e-01       7.0473586e-04       7.2303633e+00
       2.4148240e-01       6.9776479e-04       7.2252590e+00
       2.4315795e-01       6.9085459e-04       7.2201067e+00
       2.4484514e-01       6.8400476e-04       7.2149080e+00
       2.4654403e-01       6.7721480e-04       7.2096642e+00
       2.4825471e-01       6.7048423e-04       7.2043766e+00
       2.4997725e-01       6.6381257e-04       7.1990466e+00
       2.5171175e-01       6.5719936e-04       7.1936752e+00
       2.5345829e-01       6.5064415e-04       7.1882637e+00
       2.5521694e-01       6.4414651e-04       7.1828129e+00
       2.5698780e-01       6.3770601e-04       7.1773240e+00
       2.5877094e-01       6.3132223e-04       7.1717976e+00
       2.6056646e-01       6.2499477e-04       7.1662346e+00
       2.6237443e-01       6.1872323e-04       7.1606356e+00
       2.6419495e-01       6.1250723e-04       7.1550012e+00
       2.6602810e-01       6.0634640e-04       7.1493319e+00
       2.6787398e-01       6.0024037e-04       7.1436281e+00
       2.6973265e-01       5.9418878e-04       7.1378900e+00
       2.7160423e-01       5.8819129e-04       7.1321178e+00
       2.7348879e-01       5.8224757e-04       7.1263117e+00
       2.7538643e-01       5.7635727e-04       7.1204715e+00
       2.7729723e-01       5.7052008e-04       7.1145972e+00
       2.7922130e-01       5.6473568e-04       7.1086885e+00
       2.8115871e-01       5.5900376e-04       7.1027452e+00
       2.8310957e-01       5.5332401e-04       7.0967668e+00
       2.8507396e-01       5.4769614e-04       7.0907529e+00
       2.8705198e-01       5.4211985e-04       7.0847029e+00
       2.8904373e-01       5.3659484e-04       7.0786161e+00
       2.9104930e-01       5.3112084e-04       7.0724918e+00
       2.9306878e-01       5.2569756e-04       7.0663291e+00
       2.9510228e-01       5.2032471e-04       7.0601273e+00
       2.9714989e-01       5.1500201e-04       7.0538853e+00
       2.9921170e-01       5.0972918e-04       7.0476022e+00
       3.0128782e-01       5.0450595e-04       7.0412769e+00
       3.0337834e-01       4.9933203e-04       7.0349084e+00
       3.0548338e-01       4.9420714e-04       7.0284956e+00
       3.0760301e-01       4.8913099e-04       7.0220372e+00
       3.0973736e-01       4.8410332e-04       7.0155322e+00
       3.1188651e-01       4.7912382e-04       7.0089794e+00
       3.1405057e-01       4.7419221e-04       7.0023776e+00
       3.1622966e-01       4.6930820e-04       6.9957257e+00
       3.1842386e-01       4.6447149e-04       6.9890226e+00
       3.2063328e-01       4.5968177e-04       6.9822671e+00
       3.2285804e-01       4.5493875e-04       6.9754583e+00
       3.2509823e-01       4.5024210e-04       6.9685951e+00
       3.2735397e-01       4.4559152e-04       6.9616766e+00
       3.2962536e-01       4.4098668e-04       6.9547020e+00
       3.3191251e-01       4.3642724e-04       6.9476704e+00
       3.3421552e-01       4.3191288e-04       6.9405812e+00
       3.3653452e-01       4.2744326e-04       6.9334338e+00
       3.3886961e-01       4.2301801e-04       6.9262278e+00
       3.4122090e-01       4.1863680e-04       6.9189628e+00
       3.4358851e-01       4.1429925e-04       6.9116386e+00
       3.4597254e-01       4.1000500e-04       6.9042552e+00
       3.4837312e-01       4.0575366e-04       6.8968126e+00
       3.5079035e-01       4.0154486e-04       6.8893110e+00
       3.5322436e-01       3.9737821e-04       6.8817509e+00
       3.5567525e-01       3.9325330e-04       6.8741329e+00
       3.5814315e-01       3.8916975e-04       6.8664576e+00
       3.6062817e-01       3.8512713e-04       6.8587261e+00
       3.6313044e-01       3.8112503e-04       6.8509394e+00
       3.6565007e-01       3.7716304e-04       6.8430988e+00
       3.6818718e-01       3.7324074e-04       6.8352058e+00
       3.7074189e-01       3.6935768e-04       6.8272620e+00
       3.7331434e-01       3.6551344e-04       6.8192693e+00
       3.7590463e-01       3.6170759e-04       6.8112298e+00
       3.7851289e-01       3.5793968e-04       6.8031456e+00
       3.8113925e-01       3.5420929e-04       6.7950191e+00
       3.8378384e-01       3.5051596e-04       6.7868528e+00
       3.8644677e-01       3.4685925e-04       6.7786495e+00
       3.8912818e-01       3.4323873e-04       6.7704120e+00
       3.9182820e-01       3.3965396e-04       6.7621433e+00
       3.9454695e-01       3.3610449e-04       6.7538465e+00
       3.9728457e-01       3.3258990e-04       6.7455248e+00
       4.0004118e-01       3.2910974e-04       6.7371817e+00
       4.0281692e-01       3.2566360e-04       6.7288204e+00
       4.0561191e-01       3.2225105e-04       6.7204445e+00
       4.0842631e-01       3.1887168e-04       6.7120576e+00
       4.1126023e-01       3.1552508e-04       6.7036631e+00
       4.1411381e-01       3.1221084e-04       6.6952646e+00
       4.1698719e-01       3.0892858e-04       6.6868658e+00
       4.1988051e-01       3.0567791e-04       6.6784702e+00
       4.2279391e-01       3.0245846e-04       6.6700812e+00
       4.2572752e-01       2.9926986e-04       6.6617022e+00
       4.2868149e-01       2.9611177e-04       6.6533365e+00
       4.3165595e-01       2.9298385e-04       6.6449874e+00
       4.3465105e-01       2.8988578e-04       6.6366579e+00
       4.3766693e-01       2.8681722e-04       6.6283509e+00
       4.4070374e-01       2.8377790e-04       6.6200690e+00
       4.4376162e-01       2.8076752e-04       6.6118148e+00
       4.4684072e-01       2.7778580e-04       6.6035905e+00
       4.4994119e-01       2.7483250e-04       6.5953981e+00
       4.5306316e-01       2.7190735e-04       6.5872395e+00
       4.5620680e-01       2.6901014e-04       6.5791161e+00
       4.5937225e-01       2.6614064e-04       6.5710291e+00
       4.6255967e-01       2.6329864e-04       6.5629795e+00
       4.6576920e-01       2.6048396e-04       6.5549679e+00
       4.6900100e-01       2.5769642e-04       6.5469946e+00
       4.7225522e-01       2.5493584e-04       6.5390596e+00
       4.7553203e-01       2.5220207e-04       6.5311626e+00
       4.7883157e-01       2.4949496e-04       6.5233030e+00
       4.8215401e-01       2.4681437e-04       6.5154799e+00
       4.8549949e-01       2.4416017e-04       6.5076921e+00
       4.8886820e-01       2.4153223e-04       6.4999382e+00
       4.9226027e-01       2.3893045e-04       6.4922165e+00
       4.9567589e-01       2.3635470e-04       6.4845251e+00
       4.9911520e-01       2.3380488e-04       6.4768618e+00
       5.0257837e-01       2.3128087e-04       6.4692245e+00
       5.0606558e-01       2.2878257e-04       6.4616106e+00
       5.0957698e-01       2.2630987e-04       6.4540176e+00
       5.1311275e-01       2.2386266e-04       6.4464430e+00
       5.1667305e-01       2.2144083e-04       6.4388842e+00
       5.2025805e-01       2.1904424e-04       6.4313386e+00
       5.2386793e-01       2.1667279e-04       6.4238037e+00
       5.2750286e-01       2.1432633e-04       6.4162771e+00
       5.3116301e-01       2.1200472e-04       6.4087567e+00
       5.3484855e-01       2.0970781e-04       6.4012403e+00
       5.3855967e-01       2.0743543e-04       6.3937265e+00
       5.4229654e-01       2.0518741e-04       6.3862136e+00
       5.4605933e-01       2.0296355e-04       6.3787007e+00
       5.4984824e-01       2.0076366e-04       6.3711873e+00
       5.5366343e-01       1.9858752e-04       6.3636730e+00
       5.5750510e-01       1.9643490e-04       6.3561583e+00
       5.6137342e-01       1.9430555e-04       6.3486439e+00
       5.6526858e-01       1.9219921e-04       6.3411313e+00
       5.6919077e-01       1.9011561e-04       6.3336225e+00
       5.7314018e-01       1.8805447e-04       6.3261199e+00
       5.7711699e-01       1.8601549e-04       6.3186267e+00
       5.8112139e-01       1.8399835e-04       6.3111467e+00
       5.8515358e-01       1.8200274e-04       6.3036842e+00
       5.8921374e-01       1.8002832e-04       6.2962440e+00
       5.9330208e-01       1.7807477e-04       6.2888315e+00
       5.9741878e-01       1.7614174e-04       6.2814527e+00
       6.0156405e-01       1.7422889e-04       6.2741137e+00
       6.0573808e-01       1.7233587e-04       6.2668213e+00
       6.0994108e-01       1.7046234e-04       6.2595825e+00
       6.1417323e-01       1.6860795e-04       6.2524044e+00
       6.1843475e-01       1.6677239e-04       6.2452944e+00
       6.2272584e-01       1.6495531e-04       6.2382597e+00
       6.2704671e-01       1.6315642e-04       6.2313076e+00
       6.3139756e-01       1.6137541e-04       6.2244452e+00
       6.3577859e-01       1.5961200e-04       6.2176791e+00
       6.4019002e-01       1.5786594e-04       6.2110156e+00
       6.4463207e-01       1.5613697e-04       6.2044604e+00
       6.4910493e-01       1.5442488e-04       6.1980185e+00
       6.5360883e-01       1.5272948e-04       6.1916943e+00
       6.5814398e-01       1.5105060e-04       6.1854909e+00
       6.6271060e-01       1.4938810e-04       6.1794109e+00
       6.6730890e-01       1.4774187e-04       6.1734554e+00
       6.7193911e-01       1.4611181e-04       6.1676247e+00
       6.7660145e-01       1.4449787e-04       6.1619179e+00
       6.8129614e-01       1.4290002e-04       6.1563327e+00
       6.8602340e-01       1.4131823e-04       6.1508659e+00
       6.9078347e-01       1.3975251e-04       6.1455131e+00
       6.9557656e-01       1.3820288e-04       6.1402688e+00
       7.0040291e-01       1.3666938e-04       6.1351267e+00
       7.0526275e-01       1.3515206e-04       6.1300796e+00
       7.1015630e-01       1.3365096e-04       6.1251196e+00
       7.1508382e-01       1.3216613e-04       6.1202388e+00
       7.2004552e-01       1.3069761e-04       6.1154287e+00
       7.2504165e-01       1.2924543e-04       6.1106812e+00
       7.3007245e-01       1.2780961e-04       6.1059886e+00
       7.3513815e-01       1.2639013e-04       6.1013437e+00
       7.4023900e-01       1.2498695e-04       6.0967408e+00
       7.4537525e-01       1.2360000e-04       6.0921751e+00
       7.5054713e-01       1.2222916e-04       6.0876440e+00
       7.5575490e-01       1.2087428e-04       6.0831466e+00
       7.6099881e-01       1.1953517e-04       6.0786844e+00
       7.6627910e-01       1.1821158e-04       6.0742614e+00
       7.7159603e-01       1.1690321e-04       6.0698843e+00
       7.7694985e-01       1.1560974e-04       6.0655626e+00
       7.8234082e-01       1.1433079e-04       6.0613083e+00
       7.8776919e-01       1.1306594e-04       6.0571363e+00
       7.9323523e-01       1.1181477e-04       6.0530637e+00
       7.9873920e-01       1.1057680e-04       6.0491095e+00
       8.0428136e-01       1.0935159e-04       6.0452941e+00
       8.0986197e-01       1.0813867e-04       6.0416388e+00
       8.1548130e-01       1.0693761e-04       6.0381648e+00
       8.2113963e-01       1.0574800e-04       6.0348920e+00
       8.2683721e-01       1.0456951e-04       6.0318386e+00
       8.3257433e-01       1.0340184e-04       6.0290192e+00
       8.3835126e-01       1.0224483e-04       6.0264444e+00
       8.4416827e-01       1.0109836e-04       6.0241190e+00
       8.5002564e-01       9.9962461e-05       6.0220415e+00
       8.5592365e-01       9.8837266e-05       6.0202030e+00
       8.6186259e-01       9.7723020e-05       6.0185871e+00
       8.6784274e-01       9.6620080e-05       6.0171692e+00
       8.7386438e-01       9.5528893e-05       6.0159177e+00
       8.7992780e-01       9.4449975e-05       6.0147944e+00
       8.8603330e-01       9.3383871e-05       6.0137574e+00
       8.9218116e-01       9.2331112e-05       6.0127632e+00
       8.9837167e-01       9.1292152e-05       6.0117707e+00
       9.0460514e-01       9.0267308e-05       6.0107462e+00
       9.1088186e-01       8.9256682e-05       6.0096687e+00
       9.1720214e-01       8.8260087e-05       6.0085359e+00
       9.2356626e-01       8.7276976e-05       6.0073706e+00
       9.2997455e-01       8.6306393e-05       6.0062260e+00
       9.3642730e-01       8.5346944e-05       6.0051890e+00
       9.4292483e-01       8.4396837e-05       6.0043805e+00
       9.4946743e-01       8.3453991e-05       6.0039485e+00
       9.5605544e-01       8.2516272e-05       6.0040537e+00
       9.6268915e-01       8.1581899e-05       6.0048394e+00
       9.6936890e-01       8.0650070e-05       6.0063833e+00
       9.7609499e-01       7.9721902e-05       6.0086224e+00
       9.8286776e-01       7.8801762e-05       6.0112398e+00
       9.8968751e-01       7.7899107e-05       6.0135039e+00
       9.9655459e-01       7.7031028e-05       6.0140406e+00
