       1.0034693e-03       3.2977482e-04       8.1656145e-01
       1.0104320e-03       3.2975561e-04       8.1652973e-01
       1.0174430e-03       3.2973626e-04       8.1649780e-01
       1.0245027e-03       3.2971679e-04       8.1646565e-01
       1.0316113e-03       3.2969718e-04       8.1643328e-01
       1.0387693e-03       3.2967744e-04       8.1640069e-01
       1.0459770e-03       3.2965757e-04       8.1636788e-01
       1.0532346e-03       3.2963755e-04       8.1633484e-01
       1.0605426e-03       3.2961741e-04       8.1630158e-01
       1.0679013e-03       3.2959712e-04       8.1626809e-01
       1.0753111e-03       3.2957670e-04       8.1623437e-01
       1.0827723e-03       3.2955614e-04       8.1620043e-01
       1.0902852e-03       3.2953544e-04       8.1616625e-01
       1.0978503e-03       3.2951460e-04       8.1613183e-01
       1.1054679e-03       3.2949361e-04       8.1609719e-01
       1.1131383e-03       3.2947249e-04       8.1606230e-01
       1.1208620e-03       3.2945122e-04       8.1602718e-01
       1.1286392e-03       3.2942980e-04       8.1599182e-01
       1.1364705e-03       3.2940824e-04       8.1595621e-01
       1.1443560e-03       3.2938654e-04       8.1592037e-01
       1.1522963e-03       3.2936468e-04       8.1588428e-01
       1.1602916e-03       3.2934268e-04       8.1584794e-01
       1.1683425e-03       3.2932053e-04       8.1581136e-01
       1.1764492e-03       3.2929823e-04       8.1577453e-01
       1.1846121e-03       3.2927577e-04       8.1573744e-01
       1.1928317e-03       3.2925317e-04       8.1570010e-01
       1.2011083e-03       3.2923041e-04       8.1566251e-01
       1.2094424e-03       3.2920749e-04       8.1562467e-01
       1.2178342e-03       3.2918442e-04       8.1558656e-01
       1.2262843e-03       3.2916119e-04       8.1554820e-01
       1.2347931e-03       3.2913781e-04       8.1550957e-01
       1.2433609e-03       3.2911427e-04       8.1547068e-01
       1.2519881e-03       3.2909056e-04       8.1543153e-01
       1.2606752e-03       3.2906670e-04       8.1539211e-01
       1.2694225e-03       3.2904268e-04       8.1535242e-01
       1.2782306e-03       3.2901849e-04       8.1531246e-01
       1.2870997e-03       3.2899413e-04       8.1527223e-01
       1.2960305e-03       3.2896962e-04       8.1523172e-01
       1.3050231e-03       3.2894493e-04       8.1519094e-01
       1.3140782e-03       3.2892008e-04       8.1514989e-01
       1.3231961e-03       3.2889506e-04       8.1510855e-01
       1.3323773e-03       3.2886988e-04       8.1506693e-01
       1.3416222e-03       3.2884452e-04       8.1502503e-01
       1.3509312e-03       3.2881899e-04       8.1498285e-01
       1.3603048e-03       3.2879328e-04       8.1494038e-01
       1.3697434e-03       3.2876740e-04       8.1489761e-01
       1.3792476e-03       3.2874135e-04       8.1485456e-01
       1.3888177e-03       3.2871512e-04       8.1481122e-01
       1.3984542e-03       3.2868871e-04       8.1476758e-01
       1.4081575e-03       3.2866213e-04       8.1472365e-01
       1.4179282e-03       3.2863536e-04       8.1467941e-01
       1.4277667e-03       3.2860842e-04       8.1463488e-01
       1.4376735e-03       3.2858129e-04       8.1459005e-01
       1.4476489e-03       3.2855398e-04       8.1454491e-01
       1.4576936e-03       3.2852648e-04       8.1449946e-01
       1.4678080e-03       3.2849880e-04       8.1445370e-01
       1.4779926e-03       3.2847093e-04       8.1440764e-01
       1.4882479e-03       3.2844287e-04       8.1436126e-01
       1.4985743e-03       3.2841463e-04       8.1431457e-01
       1.5089723e-03       3.2838619e-04       8.1426756e-01
       1.5194425e-03       3.2835756e-04       8.1422023e-01
       1.5299854e-03       3.2832874e-04       8.1417258e-01
       1.5406014e-03       3.2829972e-04       8.1412461e-01
       1.5512910e-03       3.2827050e-04       8.1407632e-01
       1.5620549e-03       3.2824109e-04       8.1402769e-01
       1.5728934e-03       3.2821149e-04       8.1397874e-01
       1.5838071e-03       3.2818168e-04       8.1392945e-01
       1.5947966e-03       3.2815167e-04       8.1387984e-01
       1.6058623e-03       3.2812146e-04       8.1382988e-01
       1.6170048e-03       3.2809104e-04       8.1377959e-01
       1.6282246e-03       3.2806042e-04       8.1372896e-01
       1.6395222e-03       3.2802959e-04       8.1367798e-01
       1.6508983e-03       3.2799856e-04       8.1362666e-01
       1.6623532e-03       3.2796732e-04       8.1357499e-01
       1.6738877e-03       3.2793586e-04       8.1352297e-01
       1.6855022e-03       3.2790420e-04       8.1347060e-01
       1.6971973e-03       3.2787232e-04       8.1341788e-01
       1.7089735e-03       3.2784023e-04       8.1336480e-01
       1.7208314e-03       3.2780792e-04       8.1331136e-01
       1.7327717e-03       3.2777539e-04       8.1325756e-01
       1.7447947e-03       3.2774265e-04       8.1320340e-01
       1.7569012e-03       3.2770968e-04       8.1314887e-01
       1.7690917e-03       3.2767650e-04       8.1309397e-01
       1.7813668e-03       3.2764309e-04       8.1303870e-01
       1.7937270e-03       3.2760945e-04       8.1298306e-01
       1.8061730e-03       3.2757559e-04       8.1292704e-01
       1.8187054e-03       3.2754151e-04       8.1287064e-01
       1.8313247e-03       3.2750719e-04       8.1281387e-01
       1.8440316e-03       3.2747264e-04       8.1275671e-01
       1.8568267e-03       3.2743787e-04       8.1269916e-01
       1.8697105e-03       3.2740285e-04       8.1264123e-01
       1.8826837e-03       3.2736761e-04       8.1258290e-01
       1.8957470e-03       3.2733212e-04       8.1252419e-01
       1.9089009e-03       3.2729640e-04       8.1246507e-01
       1.9221460e-03       3.2726044e-04       8.1240556e-01
       1.9354831e-03       3.2722424e-04       8.1234565e-01
       1.9489127e-03       3.2718780e-04       8.1228533e-01
       1.9624355e-03       3.2715111e-04       8.1222461e-01
       1.9760521e-03       3.2711418e-04       8.1216348e-01
       1.9897632e-03       3.2707700e-04       8.1210194e-01
       2.0035694e-03       3.2703957e-04       8.1203998e-01
       2.0174715e-03       3.2700189e-04       8.1197761e-01
       2.0314700e-03       3.2696396e-04       8.1191481e-01
       2.0455656e-03       3.2692577e-04       8.1185160e-01
       2.0597590e-03       3.2688733e-04       8.1178796e-01
       2.0740509e-03       3.2684863e-04       8.1172389e-01
       2.0884420e-03       3.2680968e-04       8.1165939e-01
       2.1029329e-03       3.2677046e-04       8.1159445e-01
       2.1175244e-03       3.2673098e-04       8.1152908e-01
       2.1322171e-03       3.2669124e-04       8.1146327e-01
       2.1470118e-03       3.2665123e-04       8.1139702e-01
       2.1619091e-03       3.2661096e-04       8.1133033e-01
       2.1769098e-03       3.2657041e-04       8.1126318e-01
       2.1920146e-03       3.2652960e-04       8.1119559e-01
       2.2072242e-03       3.2648851e-04       8.1112754e-01
       2.2225393e-03       3.2644715e-04       8.1105904e-01
       2.2379606e-03       3.2640552e-04       8.1099007e-01
       2.2534890e-03       3.2636360e-04       8.1092065e-01
       2.2691252e-03       3.2632141e-04       8.1085076e-01
       2.2848698e-03       3.2627894e-04       8.1078039e-01
       2.3007237e-03       3.2623618e-04       8.1070956e-01
       2.3166875e-03       3.2619314e-04       8.1063826e-01
       2.3327622e-03       3.2614981e-04       8.1056647e-01
       2.3489483e-03       3.2610620e-04       8.1049421e-01
       2.3652468e-03       3.2606229e-04       8.1042146e-01
       2.3816584e-03       3.2601810e-04       8.1034822e-01
       2.3981839e-03       3.2597361e-04       8.1027450e-01
       2.4148240e-03       3.2592882e-04       8.1020028e-01
       2.4315795e-03       3.2588374e-04       8.1012556e-01
       2.4484514e-03       3.2583835e-04       8.1005035e-01
       2.4654403e-03       3.2579267e-04       8.0997463e-01
       2.4825471e-03       3.2574668e-04       8.0989841e-01
       2.4997725e-03       3.2570039e-04       8.0982168e-01
       2.5171175e-03       3.2565379e-04       8.0974443e-01
       2.5345829e-03       3.2560688e-04       8.0966667e-01
       2.5521694e-03       3.2555966e-04       8.0958839e-01
       2.5698780e-03       3.2551213e-04       8.0950959e-01
       2.5877094e-03       3.2546428e-04       8.0943026e-01
       2.6056646e-03       3.2541612e-04       8.0935040e-01
       2.6237443e-03       3.2536764e-04       8.0927001e-01
       2.6419495e-03       3.2531883e-04       8.0918908e-01
       2.6602810e-03       3.2526971e-04       8.0910762e-01
       2.6787398e-03       3.2522026e-04       8.0902561e-01
       2.6973265e-03       3.2517048e-04       8.0894306e-01
       2.7160423e-03       3.2512037e-04       8.0885995e-01
       2.7348879e-03       3.2506993e-04       8.0877629e-01
       2.7538643e-03       3.2501916e-04       8.0869208e-01
       2.7729723e-03       3.2496806e-04       8.0860730e-01
       2.7922130e-03       3.2491661e-04       8.0852196e-01
       2.8115871e-03       3.2486483e-04       8.0843606e-01
       2.8310957e-03       3.2481271e-04       8.0834958e-01
       2.8507396e-03       3.2476024e-04       8.0826253e-01
       2.8705198e-03       3.2470742e-04       8.0817490e-01
       2.8904373e-03       3.2465426e-04       8.0808669e-01
       2.9104930e-03       3.2460075e-04       8.0799789e-01
       2.9306878e-03       3.2454689e-04       8.0790850e-01
       2.9510228e-03       3.2449267e-04       8.0781852e-01
       2.9714989e-03       3.2443809e-04       8.0772794e-01
       2.9921170e-03       3.2438316e-04       8.0763676e-01
       3.0128782e-03       3.2432787e-04       8.0754498e-01
       3.0337834e-03       3.2427221e-04       8.0745259e-01
       3.0548338e-03       3.2421618e-04       8.0735958e-01
       3.0760301e-03       3.2415979e-04       8.0726596e-01
       3.0973736e-03       3.2410303e-04       8.0717172e-01
       3.1188651e-03       3.2404590e-04       8.0707686e-01
       3.1405057e-03       3.2398839e-04       8.0698137e-01
       3.1622966e-03       3.2393050e-04       8.0688525e-01
       3.1842386e-03       3.2387224e-04       8.0678849e-01
       3.2063328e-03       3.2381359e-04       8.0669109e-01
       3.2285804e-03       3.2375456e-04       8.0659305e-01
       3.2509823e-03       3.2369514e-04       8.0649436e-01
       3.2735397e-03       3.2363534e-04       8.0639502e-01
       3.2962536e-03       3.2357514e-04       8.0629502e-01
       3.3191251e-03       3.2351455e-04       8.0619436e-01
       3.3421552e-03       3.2345356e-04       8.0609304e-01
       3.3653452e-03       3.2339218e-04       8.0599105e-01
       3.3886961e-03       3.2333039e-04       8.0588839e-01
       3.4122090e-03       3.2326820e-04       8.0578505e-01
       3.4358851e-03       3.2320561e-04       8.0568103e-01
       3.4597254e-03       3.2314261e-04       8.0557633e-01
       3.4837312e-03       3.2307919e-04       8.0547093e-01
       3.5079035e-03       3.2301537e-04       8.0536484e-01
       3.5322436e-03       3.2295113e-04       8.0525806e-01
       3.5567525e-03       3.2288647e-04       8.0515057e-01
       3.5814315e-03       3.2282138e-04       8.0504238e-01
       3.6062817e-03       3.2275588e-04       8.0493347e-01
       3.6313044e-03       3.2268995e-04       8.0482385e-01
       3.6565007e-03       3.2262359e-04       8.0471351e-01
       3.6818718e-03       3.2255680e-04       8.0460245e-01
       3.7074189e-03       3.2248958e-04       8.0449065e-01
       3.7331434e-03       3.2242192e-04       8.0437813e-01
       3.7590463e-03       3.2235382e-04       8.0426486e-01
       3.7851289e-03       3.2228528e-04       8.0415085e-01
       3.8113925e-03       3.2221630e-04       8.0403610e-01
       3.8378384e-03       3.2214687e-04       8.0392060e-01
       3.8644677e-03       3.2207699e-04       8.0380433e-01
       3.8912818e-03       3.2200666e-04       8.0368731e-01
       3.9182820e-03       3.2193587e-04       8.0356953e-01
       3.9454695e-03       3.2186463e-04       8.0345097e-01
       3.9728457e-03       3.2179292e-04       8.0333164e-01
       4.0004118e-03       3.2172075e-04       8.0321152e-01
       4.0281692e-03       3.2164812e-04       8.0309063e-01
       4.0561191e-03       3.2157502e-04       8.0296894e-01
       4.0842631e-03       3.2150144e-04       8.0284646e-01
       4.1126023e-03       3.2142740e-04       8.0272318e-01
       4.1411381e-03       3.2135287e-04       8.0259910e-01
       4.1698719e-03       3.2127787e-04       8.0247421e-01
       4.1988051e-03       3.2120238e-04       8.0234851e-01
       4.2279391e-03       3.2112641e-04       8.0222198e-01
       4.2572752e-03       3.2104995e-04       8.0209464e-01
       4.2868149e-03       3.2097299e-04       8.0196646e-01
       4.3165595e-03       3.2089555e-04       8.0183746e-01
       4.3465105e-03       3.2081760e-04       8.0170761e-01
       4.3766693e-03       3.2073916e-04       8.0157692e-01
       4.4070374e-03       3.2066021e-04       8.0144538e-01
       4.4376162e-03       3.2058076e-04       8.0131299e-01
       4.4684072e-03       3.2050080e-04       8.0117974e-01
       4.4994119e-03       3.2042033e-04       8.0104562e-01
       4.5306316e-03       3.2033934e-04       8.0091064e-01
       4.5620680e-03       3.2025783e-04       8.0077478e-01
       4.5937225e-03       3.2017581e-04       8.0063804e-01
       4.6255967e-03       3.2009326e-04       8.0050042e-01
       4.6576920e-03       3.2001018e-04       8.0036190e-01
       4.6900100e-03       3.1992657e-04       8.0022249e-01
       4.7225522e-03       3.1984243e-04       8.0008218e-01
       4.7553203e-03       3.1975776e-04       7.9994096e-01
       4.7883157e-03       3.1967254e-04       7.9979884e-01
       4.8215401e-03       3.1958678e-04       7.9965579e-01
       4.8549949e-03       3.1950048e-04       7.9951182e-01
       4.8886820e-03       3.1941363e-04       7.9936692e-01
       4.9226027e-03       3.1932623e-04       7.9922109e-01
       4.9567589e-03       3.1923827e-04       7.9907432e-01
       4.9911520e-03       3.1914975e-04       7.9892661e-01
       5.0257837e-03       3.1906067e-04       7.9877794e-01
       5.0606558e-03       3.1897103e-04       7.9862832e-01
       5.0957698e-03       3.1888082e-04       7.9847774e-01
       5.1311275e-03       3.1879004e-04       7.9832619e-01
       5.1667305e-03       3.1869869e-04       7.9817366e-01
       5.2025805e-03       3.1860675e-04       7.9802016e-01
       5.2386793e-03       3.1851424e-04       7.9786567e-01
       5.2750286e-03       3.1842114e-04       7.9771020e-01
       5.3116301e-03       3.1832746e-04       7.9755372e-01
       5.3484855e-03       3.1823318e-04       7.9739625e-01
       5.3855967e-03       3.1813831e-04       7.9723776e-01
       5.4229654e-03       3.1804285e-04       7.9707827e-01
       5.4605933e-03       3.1794678e-04       7.9691775e-01
       5.4984824e-03       3.1785011e-04       7.9675621e-01
       5.5366343e-03       3.1775283e-04       7.9659364e-01
       5.5750510e-03       3.1765494e-04       7.9643002e-01
       5.6137342e-03       3.1755644e-04       7.9626537e-01
       5.6526858e-03       3.1745732e-04       7.9609966e-01
       5.6919077e-03       3.1735758e-04       7.9593290e-01
       5.7314018e-03       3.1725721e-04       7.9576508e-01
       5.7711699e-03       3.1715622e-04       7.9559619e-01
       5.8112139e-03       3.1705459e-04       7.9542623e-01
       5.8515358e-03       3.1695233e-04       7.9525518e-01
       5.8921374e-03       3.1684943e-04       7.9508305e-01
       5.9330208e-03       3.1674589e-04       7.9490983e-01
       5.9741878e-03       3.1664170e-04       7.9473551e-01
       6.0156405e-03       3.1653686e-04       7.9456008e-01
       6.0573808e-03       3.1643137e-04       7.9438354e-01
       6.0994108e-03       3.1632523e-04       7.9420588e-01
       6.1417323e-03       3.1621842e-04       7.9402710e-01
       6.1843475e-03       3.1611096e-04       7.9384719e-01
       6.2272584e-03       3.1600282e-04       7.9366614e-01
       6.2704671e-03       3.1589402e-04       7.9348395e-01
       6.3139756e-03       3.1578454e-04       7.9330060e-01
       6.3577859e-03       3.1567438e-04       7.9311610e-01
       6.4019002e-03       3.1556354e-04       7.9293044e-01
       6.4463207e-03       3.1545201e-04       7.9274360e-01
       6.4910493e-03       3.1533980e-04       7.9255559e-01
       6.5360883e-03       3.1522689e-04       7.9236640e-01
       6.5814398e-03       3.1511329e-04       7.9217602e-01
       6.6271060e-03       3.1499899e-04       7.9198444e-01
       6.6730890e-03       3.1488398e-04       7.9179166e-01
       6.7193911e-03       3.1476827e-04       7.9159767e-01
       6.7660145e-03       3.1465184e-04       7.9140246e-01
       6.8129614e-03       3.1453470e-04       7.9120603e-01
       6.8602340e-03       3.1441684e-04       7.9100837e-01
       6.9078347e-03       3.1429826e-04       7.9080947e-01
       6.9557656e-03       3.1417895e-04       7.9060933e-01
       7.0040291e-03       3.1405891e-04       7.9040793e-01
       7.0526275e-03       3.1393814e-04       7.9020528e-01
       7.1015630e-03       3.1381663e-04       7.9000137e-01
       7.1508382e-03       3.1369437e-04       7.8979618e-01
       7.2004552e-03       3.1357137e-04       7.8958972e-01
       7.2504165e-03       3.1344762e-04       7.8938197e-01
       7.3007245e-03       3.1332312e-04       7.8917292e-01
       7.3513815e-03       3.1319786e-04       7.8896258e-01
       7.4023900e-03       3.1307184e-04       7.8875093e-01
       7.4537525e-03       3.1294506e-04       7.8853797e-01
       7.5054713e-03       3.1281750e-04       7.8832368e-01
       7.5575490e-03       3.1268917e-04       7.8810807e-01
       7.6099881e-03       3.1256007e-04       7.8789112e-01
       7.6627910e-03       3.1243018e-04       7.8767283e-01
       7.7159603e-03       3.1229951e-04       7.8745319e-01
       7.7694985e-03       3.1216805e-04       7.8723219e-01
       7.8234082e-03       3.1203579e-04       7.8700983e-01
       7.8776919e-03       3.1190274e-04       7.8678609e-01
       7.9323523e-03       3.1176889e-04       7.8656098e-01
       7.9873920e-03       3.1163423e-04       7.8633448e-01
       8.0428136e-03       3.1149877e-04       7.8610658e-01
       8.0986197e-03       3.1136249e-04       7.8587729e-01
       8.1548130e-03       3.1122539e-04       7.8564658e-01
       8.2113963e-03       3.1108747e-04       7.8541446e-01
       8.2683721e-03       3.1094873e-04       7.8518091e-01
       8.3257433e-03       3.1080915e-04       7.8494594e-01
       8.3835126e-03       3.1066875e-04       7.8470952e-01
       8.4416827e-03       3.1052750e-04       7.8447166e-01
       8.5002564e-03       3.1038541e-04       7.8423234e-01
       8.5592365e-03       3.1024248e-04       7.8399156e-01
       8.6186259e-03       3.1009870e-04       7.8374931e-01
       8.6784274e-03       3.0995406e-04       7.8350559e-01
       8.7386438e-03       3.0980856e-04       7.8326038e-01
       8.7992780e-03       3.0966221e-04       7.8301368e-01
       8.8603330e-03       3.0951498e-04       7.8276547e-01
       8.9218116e-03       3.0936688e-04       7.8251576e-01
       8.9837167e-03       3.0921791e-04       7.8226453e-01
       9.0460514e-03       3.0906806e-04       7.8201178e-01
       9.1088186e-03       3.0891733e-04       7.8175750e-01
       9.1720214e-03       3.0876570e-04       7.8150168e-01
       9.2356626e-03       3.0861319e-04       7.8124431e-01
       9.2997455e-03       3.0845978e-04       7.8098538e-01
       9.3642730e-03       3.0830546e-04       7.8072489e-01
       9.4292483e-03       3.0815025e-04       7.8046283e-01
       9.4946743e-03       3.0799412e-04       7.8019920e-01
       9.5605544e-03       3.0783708e-04       7.7993397e-01
       9.6268915e-03       3.0767913e-04       7.7966715e-01
       9.6936890e-03       3.0752025e-04       7.7939872e-01
       9.7609499e-03       3.0736045e-04       7.7912869e-01
       9.8286776e-03       3.0719971e-04       7.7885703e-01
       9.8968751e-03       3.0703804e-04       7.7858375e-01
       9.9655459e-03       3.0687543e-04       7.7830883e-01
       1.0034693e-02       3.0671188e-04       7.7803227e-01
       1.0104320e-02       3.0654738e-04       7.7775406e-01
       1.0174430e-02       3.0638193e-04       7.7747419e-01
       1.0245027e-02       3.0621552e-04       7.7719264e-01
       1.0316113e-02       3.0604816e-04       7.7690943e-01
       1.0387693e-02       3.0587982e-04       7.7662452e-01
       1.0459770e-02       3.0571052e-04       7.7633793e-01
       1.0532346e-02       3.0554025e-04       7.7604963e-01
       1.0605426e-02       3.0536900e-04       7.7575962e-01
       1.0679013e-02       3.0519676e-04       7.7546790e-01
       1.0753111e-02       3.0502354e-04       7.7517445e-01
       1.0827723e-02       3.0484933e-04       7.7487926e-01
       1.0902852e-02       3.0467412e-04       7.7458234e-01
       1.0978503e-02       3.0449791e-04       7.7428366e-01
       1.1054679e-02       3.0432070e-04       7.7398322e-01
       1.1131383e-02       3.0414248e-04       7.7368101e-01
       1.1208620e-02       3.0396325e-04       7.7337703e-01
       1.1286392e-02       3.0378301e-04       7.7307126e-01
       1.1364705e-02       3.0360174e-04       7.7276370e-01
       1.1443560e-02       3.0341944e-04       7.7245434e-01
       1.1522963e-02       3.0323612e-04       7.7214316e-01
       1.1602916e-02       3.0305176e-04       7.7183017e-01
       1.1683425e-02       3.0286636e-04       7.7151535e-01
       1.1764492e-02       3.0267992e-04       7.7119869e-01
       1.1846121e-02       3.0249243e-04       7.7088019e-01
       1.1928317e-02       3.0230389e-04       7.7055984e-01
       1.2011083e-02       3.0211430e-04       7.7023763e-01
       1.2094424e-02       3.0192364e-04       7.6991354e-01
       1.2178342e-02       3.0173192e-04       7.6958758e-01
       1.2262843e-02       3.0153913e-04       7.6925973e-01
       1.2347931e-02       3.0134527e-04       7.6892998e-01
       1.2433609e-02       3.0115032e-04       7.6859833e-01
       1.2519881e-02       3.0095430e-04       7.6826476e-01
       1.2606752e-02       3.0075719e-04       7.6792928e-01
       1.2694225e-02       3.0055899e-04       7.6759186e-01
       1.2782306e-02       3.0035970e-04       7.6725251e-01
       1.2870997e-02       3.0015930e-04       7.6691120e-01
       1.2960305e-02       2.9995780e-04       7.6656794e-01
       1.3050231e-02       2.9975520e-04       7.6622272e-01
       1.3140782e-02       2.9955148e-04       7.6587552e-01
       1.3231961e-02       2.9934664e-04       7.6552634e-01
       1.3323773e-02       2.9914068e-04       7.6517517e-01
       1.3416222e-02       2.9893360e-04       7.6482199e-01
       1.3509312e-02       2.9872539e-04       7.6446681e-01
       1.3603048e-02       2.9851604e-04       7.6410961e-01
       1.3697434e-02       2.9830556e-04       7.6375039e-01
       1.3792476e-02       2.9809393e-04       7.6338913e-01
       1.3888177e-02       2.9788116e-04       7.6302583e-01
       1.3984542e-02       2.9766724e-04       7.6266047e-01
       1.4081575e-02       2.9745216e-04       7.6229306e-01
       1.4179282e-02       2.9723592e-04       7.6192357e-01
       1.4277667e-02       2.9701852e-04       7.6155200e-01
       1.4376735e-02       2.9679995e-04       7.6117835e-01
       1.4476489e-02       2.9658021e-04       7.6080261e-01
       1.4576936e-02       2.9635929e-04       7.6042475e-01
       1.4678080e-02       2.9613720e-04       7.6004479e-01
       1.4779926e-02       2.9591391e-04       7.5966270e-01
       1.4882479e-02       2.9568944e-04       7.5927848e-01
       1.4985743e-02       2.9546378e-04       7.5889212e-01
       1.5089723e-02       2.9523692e-04       7.5850361e-01
       1.5194425e-02       2.9500886e-04       7.5811295e-01
       1.5299854e-02       2.9477959e-04       7.5772012e-01
       1.5406014e-02       2.9454911e-04       7.5732511e-01
       1.5512910e-02       2.9431742e-04       7.5692792e-01
       1.5620549e-02       2.9408452e-04       7.5652854e-01
       1.5728934e-02       2.9385039e-04       7.5612696e-01
       1.5838071e-02       2.9361503e-04       7.5572317e-01
       1.5947966e-02       2.9337845e-04       7.5531716e-01
       1.6058623e-02       2.9314063e-04       7.5490892e-01
       1.6170048e-02       2.9290158e-04       7.5449845e-01
       1.6282246e-02       2.9266128e-04       7.5408573e-01
       1.6395222e-02       2.9241974e-04       7.5367076e-01
       1.6508983e-02       2.9217695e-04       7.5325353e-01
       1.6623532e-02       2.9193290e-04       7.5283403e-01
       1.6738877e-02       2.9168760e-04       7.5241225e-01
       1.6855022e-02       2.9144104e-04       7.5198818e-01
       1.6971973e-02       2.9119321e-04       7.5156182e-01
       1.7089735e-02       2.9094411e-04       7.5113315e-01
       1.7208314e-02       2.9069374e-04       7.5070217e-01
       1.7327717e-02       2.9044210e-04       7.5026886e-01
       1.7447947e-02       2.9018917e-04       7.4983323e-01
       1.7569012e-02       2.8993496e-04       7.4939525e-01
       1.7690917e-02       2.8967947e-04       7.4895493e-01
       1.7813668e-02       2.8942268e-04       7.4851226e-01
       1.7937270e-02       2.8916459e-04       7.4806721e-01
       1.8061730e-02       2.8890521e-04       7.4761980e-01
       1.8187054e-02       2.8864452e-04       7.4717000e-01
       1.8313247e-02       2.8838253e-04       7.4671782e-01
       1.8440316e-02       2.8811923e-04       7.4626323e-01
       1.8568267e-02       2.8785462e-04       7.4580624e-01
       1.8697105e-02       2.8758869e-04       7.4534683e-01
       1.8826837e-02       2.8732144e-04       7.4488500e-01
       1.8957470e-02       2.8705286e-04       7.4442074e-01
       1.9089009e-02       2.8678296e-04       7.4395404e-01
       1.9221460e-02       2.8651173e-04       7.4348489e-01
       1.9354831e-02       2.8623916e-04       7.4301328e-01
       1.9489127e-02       2.8596526e-04       7.4253921e-01
       1.9624355e-02       2.8569001e-04       7.4206267e-01
       1.9760521e-02       2.8541342e-04       7.4158364e-01
       1.9897632e-02       2.8513549e-04       7.4110213e-01
       2.0035694e-02       2.8485620e-04       7.4061811e-01
       2.0174715e-02       2.8457556e-04       7.4013160e-01
       2.0314700e-02       2.8429356e-04       7.3964257e-01
       2.0455656e-02       2.8401021e-04       7.3915101e-01
       2.0597590e-02       2.8372548e-04       7.3865693e-01
       2.0740509e-02       2.8343940e-04       7.3816031e-01
       2.0884420e-02       2.8315194e-04       7.3766114e-01
       2.1029329e-02       2.8286311e-04       7.3715942e-01
       2.1175244e-02       2.8257291e-04       7.3665514e-01
       2.1322171e-02       2.8228133e-04       7.3614830e-01
       2.1470118e-02       2.8198836e-04       7.3563887e-01
       2.1619091e-02       2.8169401e-04       7.3512686e-01
       2.1769098e-02       2.8139828e-04       7.3461226e-01
       2.1920146e-02       2.8110115e-04       7.3409505e-01
       2.2072242e-02       2.8080264e-04       7.3357524e-01
       2.2225393e-02       2.8050272e-04       7.3305282e-01
       2.2379606e-02       2.8020141e-04       7.3252777e-01
       2.2534890e-02       2.7989870e-04       7.3200009e-01
       2.2691252e-02       2.7959459e-04       7.3146978e-01
       2.2848698e-02       2.7928907e-04       7.3093682e-01
       2.3007237e-02       2.7898214e-04       7.3040121e-01
       2.3166875e-02       2.7867380e-04       7.2986293e-01
       2.3327622e-02       2.7836405e-04       7.2932199e-01
       2.3489483e-02       2.7805288e-04       7.2877838e-01
       2.3652468e-02       2.7774030e-04       7.2823209e-01
       2.3816584e-02       2.7742629e-04       7.2768311e-01
       2.3981839e-02       2.7711087e-04       7.2713143e-01
       2.4148240e-02       2.7679401e-04       7.2657705e-01
       2.4315795e-02       2.7647573e-04       7.2601996e-01
       2.4484514e-02       2.7615603e-04       7.2546015e-01
       2.4654403e-02       2.7583489e-04       7.2489762e-01
       2.4825471e-02       2.7551232e-04       7.2433236e-01
       2.4997725e-02       2.7518831e-04       7.2376437e-01
       2.5171175e-02       2.7486287e-04       7.2319363e-01
       2.5345829e-02       2.7453598e-04       7.2262014e-01
       2.5521694e-02       2.7420766e-04       7.2204389e-01
       2.5698780e-02       2.7387789e-04       7.2146489e-01
       2.5877094e-02       2.7354669e-04       7.2088311e-01
       2.6056646e-02       2.7321403e-04       7.2029856e-01
       2.6237443e-02       2.7287993e-04       7.1971122e-01
       2.6419495e-02       2.7254438e-04       7.1912110e-01
       2.6602810e-02       2.7220737e-04       7.1852818e-01
       2.6787398e-02       2.7186892e-04       7.1793246e-01
       2.6973265e-02       2.7152901e-04       7.1733393e-01
       2.7160423e-02       2.7118765e-04       7.1673259e-01
       2.7348879e-02       2.7084484e-04       7.1612843e-01
       2.7538643e-02       2.7050056e-04       7.1552145e-01
       2.7729723e-02       2.7015483e-04       7.1491164e-01
       2.7922130e-02       2.6980764e-04       7.1429899e-01
       2.8115871e-02       2.6945898e-04       7.1368350e-01
       2.8310957e-02       2.6910887e-04       7.1306516e-01
       2.8507396e-02       2.6875729e-04       7.1244397e-01
       2.8705198e-02       2.6840425e-04       7.1181993e-01
       2.8904373e-02       2.6804975e-04       7.1119301e-01
       2.9104930e-02       2.6769378e-04       7.1056323e-01
       2.9306878e-02       2.6733635e-04       7.0993058e-01
       2.9510228e-02       2.6697745e-04       7.0929505e-01
       2.9714989e-02       2.6661708e-04       7.0865663e-01
       2.9921170e-02       2.6625524e-04       7.0801532e-01
       3.0128782e-02       2.6589194e-04       7.0737112e-01
       3.0337834e-02       2.6552717e-04       7.0672403e-01
       3.0548338e-02       2.6516093e-04       7.0607402e-01
       3.0760301e-02       2.6479322e-04       7.0542111e-01
       3.0973736e-02       2.6442405e-04       7.0476529e-01
       3.1188651e-02       2.6405340e-04       7.0410655e-01
       3.1405057e-02       2.6368128e-04       7.0344489e-01
       3.1622966e-02       2.6330770e-04       7.0278031e-01
       3.1842386e-02       2.6293265e-04       7.0211279e-01
       3.2063328e-02       2.6255612e-04       7.0144235e-01
       3.2285804e-02       2.6217813e-04       7.0076896e-01
       3.2509823e-02       2.6179867e-04       7.0009263e-01
       3.2735397e-02       2.6141775e-04       6.9941336e-01
       3.2962536e-02       2.6103535e-04       6.9873113e-01
       3.3191251e-02       2.6065149e-04       6.9804596e-01
       3.3421552e-02       2.6026616e-04       6.9735783e-01
       3.3653452e-02       2.5987936e-04       6.9666674e-01
       3.3886961e-02       2.5949110e-04       6.9597268e-01
       3.4122090e-02       2.5910138e-04       6.9527566e-01
       3.4358851e-02       2.5871019e-04       6.9457567e-01
       3.4597254e-02       2.5831754e-04       6.9387271e-01
       3.4837312e-02       2.5792343e-04       6.9316677e-01
       3.5079035e-02       2.5752785e-04       6.9245786e-01
       3.5322436e-02       2.5713082e-04       6.9174596e-01
       3.5567525e-02       2.5673233e-04       6.9103108e-01
       3.5814315e-02       2.5633238e-04       6.9031322e-01
       3.6062817e-02       2.5593097e-04       6.8959236e-01
       3.6313044e-02       2.5552811e-04       6.8886852e-01
       3.6565007e-02       2.5512380e-04       6.8814168e-01
       3.6818718e-02       2.5471804e-04       6.8741185e-01
       3.7074189e-02       2.5431083e-04       6.8667902e-01
       3.7331434e-02       2.5390217e-04       6.8594319e-01
       3.7590463e-02       2.5349206e-04       6.8520436e-01
       3.7851289e-02       2.5308051e-04       6.8446253e-01
       3.8113925e-02       2.5266752e-04       6.8371770e-01
       3.8378384e-02       2.5225309e-04       6.8296986e-01
       3.8644677e-02       2.5183722e-04       6.8221901e-01
       3.8912818e-02       2.5141991e-04       6.8146516e-01
       3.9182820e-02       2.5100117e-04       6.8070830e-01
       3.9454695e-02       2.5058100e-04       6.7994842e-01
       3.9728457e-02       2.5015940e-04       6.7918554e-01
       4.0004118e-02       2.4973638e-04       6.7841965e-01
       4.0281692e-02       2.4931193e-04       6.7765074e-01
       4.0561191e-02       2.4888606e-04       6.7687883e-01
       4.0842631e-02       2.4845878e-04       6.7610390e-01
       4.1126023e-02       2.4803008e-04       6.7532596e-01
       4.1411381e-02       2.4759996e-04       6.7454500e-01
       4.1698719e-02       2.4716844e-04       6.7376103e-01
       4.1988051e-02       2.4673551e-04       6.7297405e-01
       4.2279391e-02       2.4630118e-04       6.7218406e-01
       4.2572752e-02       2.4586545e-04       6.7139105e-01
       4.2868149e-02       2.4542833e-04       6.7059504e-01
       4.3165595e-02       2.4498981e-04       6.6979601e-01
       4.3465105e-02       2.4454990e-04       6.6899397e-01
       4.3766693e-02       2.4410861e-04       6.6818893e-01
       4.4070374e-02       2.4366593e-04       6.6738087e-01
       4.4376162e-02       2.4322188e-04       6.6656981e-01
       4.4684072e-02       2.4277645e-04       6.6575574e-01
       4.4994119e-02       2.4232966e-04       6.6493867e-01
       4.5306316e-02       2.4188149e-04       6.6411859e-01
       4.5620680e-02       2.4143197e-04       6.6329552e-01
       4.5937225e-02       2.4098109e-04       6.6246944e-01
       4.6255967e-02       2.4052885e-04       6.6164037e-01
       4.6576920e-02       2.4007527e-04       6.6080830e-01
       4.6900100e-02       2.3962034e-04       6.5997324e-01
       4.7225522e-02       2.3916407e-04       6.5913519e-01
       4.7553203e-02       2.3870646e-04       6.5829415e-01
       4.7883157e-02       2.3824753e-04       6.5745013e-01
       4.8215401e-02       2.3778727e-04       6.5660312e-01
       4.8549949e-02       2.3732568e-04       6.5575313e-01
       4.8886820e-02       2.3686279e-04       6.5490017e-01
       4.9226027e-02       2.3639858e-04       6.5404423e-01
       4.9567589e-02       2.3593306e-04       6.5318532e-01
       4.9911520e-02       2.3546625e-04       6.5232345e-01
       5.0257837e-02       2.3499814e-04       6.5145861e-01
       5.0606558e-02       2.3452874e-04       6.5059081e-01
       5.0957698e-02       2.3405806e-04       6.4972006e-01
       5.1311275e-02       2.3358609e-04       6.4884635e-01
       5.1667305e-02       2.3311286e-04       6.4796970e-01
       5.2025805e-02       2.3263836e-04       6.4709011e-01
       5.2386793e-02       2.3216259e-04       6.4620757e-01
       5.2750286e-02       2.3168557e-04       6.4532210e-01
       5.3116301e-02       2.3120731e-04       6.4443371e-01
       5.3484855e-02       2.3072780e-04       6.4354239e-01
       5.3855967e-02       2.3024705e-04       6.4264815e-01
       5.4229654e-02       2.2976507e-04       6.4175099e-01
       5.4605933e-02       2.2928187e-04       6.4085093e-01
       5.4984824e-02       2.2879744e-04       6.3994796e-01
       5.5366343e-02       2.2831181e-04       6.3904209e-01
       5.5750510e-02       2.2782497e-04       6.3813334e-01
       5.6137342e-02       2.2733694e-04       6.3722169e-01
       5.6526858e-02       2.2684771e-04       6.3630717e-01
       5.6919077e-02       2.2635730e-04       6.3538977e-01
       5.7314018e-02       2.2586572e-04       6.3446951e-01
       5.7711699e-02       2.2537296e-04       6.3354638e-01
       5.8112139e-02       2.2487904e-04       6.3262040e-01
       5.8515358e-02       2.2438396e-04       6.3169157e-01
       5.8921374e-02       2.2388773e-04       6.3075990e-01
       5.9330208e-02       2.2339036e-04       6.2982540e-01
       5.9741878e-02       2.2289186e-04       6.2888807e-01
       6.0156405e-02       2.2239224e-04       6.2794792e-01
       6.0573808e-02       2.2189149e-04       6.2700496e-01
       6.0994108e-02       2.2138963e-04       6.2605920e-01
       6.1417323e-02       2.2088667e-04       6.2511063e-01
       6.1843475e-02       2.2038262e-04       6.2415929e-01
       6.2272584e-02       2.1987747e-04       6.2320516e-01
       6.2704671e-02       2.1937125e-04       6.2224826e-01
       6.3139756e-02       2.1886396e-04       6.2128859e-01
       6.3577859e-02       2.1835560e-04       6.2032617e-01
       6.4019002e-02       2.1784619e-04       6.1936101e-01
       6.4463207e-02       2.1733574e-04       6.1839311e-01
       6.4910493e-02       2.1682424e-04       6.1742248e-01
       6.5360883e-02       2.1631172e-04       6.1644913e-01
       6.5814398e-02       2.1579817e-04       6.1547307e-01
       6.6271060e-02       2.1528362e-04       6.1449431e-01
       6.6730890e-02       2.1476806e-04       6.1351286e-01
       6.7193911e-02       2.1425150e-04       6.1252873e-01
       6.7660145e-02       2.1373396e-04       6.1154192e-01
       6.8129614e-02       2.1321544e-04       6.1055246e-01
       6.8602340e-02       2.1269596e-04       6.0956034e-01
       6.9078347e-02       2.1217552e-04       6.0856559e-01
       6.9557656e-02       2.1165412e-04       6.0756820e-01
       7.0040291e-02       2.1113179e-04       6.0656819e-01
       7.0526275e-02       2.1060853e-04       6.0556558e-01
       7.1015630e-02       2.1008435e-04       6.0456037e-01
       7.1508382e-02       2.0955925e-04       6.0355257e-01
       7.2004552e-02       2.0903325e-04       6.0254219e-01
       7.2504165e-02       2.0850636e-04       6.0152925e-01
       7.3007245e-02       2.0797859e-04       6.0051376e-01
       7.3513815e-02       2.0744994e-04       5.9949572e-01
       7.4023900e-02       2.0692043e-04       5.9847516e-01
       7.4537525e-02       2.0639007e-04       5.9745208e-01
       7.5054713e-02       2.0585886e-04       5.9642649e-01
       7.5575490e-02       2.0532682e-04       5.9539841e-01
       7.6099881e-02       2.0479396e-04       5.9436784e-01
       7.6627910e-02       2.0426028e-04       5.9333481e-01
       7.7159603e-02       2.0372580e-04       5.9229933e-01
       7.7694985e-02       2.0319053e-04       5.9126140e-01
       7.8234082e-02       2.0265448e-04       5.9022103e-01
       7.8776919e-02       2.0211765e-04       5.8917826e-01
       7.9323523e-02       2.0158007e-04       5.8813307e-01
       7.9873920e-02       2.0104173e-04       5.8708550e-01
       8.0428136e-02       2.0050265e-04       5.8603555e-01
       8.0986197e-02       1.9996285e-04       5.8498323e-01
       8.1548130e-02       1.9942232e-04       5.8392857e-01
       8.2113963e-02       1.9888109e-04       5.8287156e-01
       8.2683721e-02       1.9833916e-04       5.8181224e-01
       8.3257433e-02       1.9779654e-04       5.8075061e-01
       8.3835126e-02       1.9725325e-04       5.7968668e-01
       8.4416827e-02       1.9670929e-04       5.7862047e-01
       8.5002564e-02       1.9616468e-04       5.7755200e-01
       8.5592365e-02       1.9561943e-04       5.7648128e-01
       8.6186259e-02       1.9507355e-04       5.7540832e-01
       8.6784274e-02       1.9452705e-04       5.7433314e-01
       8.7386438e-02       1.9397994e-04       5.7325575e-01
       8.7992780e-02       1.9343223e-04       5.7217617e-01
       8.8603330e-02       1.9288394e-04       5.7109442e-01
       8.9218116e-02       1.9233507e-04       5.7001051e-01
       8.9837167e-02       1.9178564e-04       5.6892445e-01
       9.0460514e-02       1.9123566e-04       5.6783626e-01
       9.1088186e-02       1.9068513e-04       5.6674596e-01
       9.1720214e-02       1.9013408e-04       5.6565357e-01
       9.2356626e-02       1.8958252e-04       5.6455909e-01
       9.2997455e-02       1.8903044e-04       5.6346254e-01
       9.3642730e-02       1.8847788e-04       5.6236395e-01
       9.4292483e-02       1.8792483e-04       5.6126332e-01
       9.4946743e-02       1.8737132e-04       5.6016068e-01
       9.5605544e-02       1.8681734e-04       5.5905603e-01
       9.6268915e-02       1.8626292e-04       5.5794941e-01
       9.6936890e-02       1.8570807e-04       5.5684082e-01
       9.7609499e-02       1.8515279e-04       5.5573028e-01
       9.8286776e-02       1.8459711e-04       5.5461780e-01
       9.8968751e-02       1.8404102e-04       5.5350341e-01
       9.9655459e-02       1.8348455e-04       5.5238713e-01
       1.0034693e-01       1.8292771e-04       5.5126896e-01
       1.0104320e-01       1.8237050e-04       5.5014893e-01
       1.0174430e-01       1.8181294e-04       5.4902705e-01
       1.0245027e-01       1.8125505e-04       5.4790335e-01
       1.0316113e-01       1.8069683e-04       5.4677783e-01
       1.0387693e-01       1.8013830e-04       5.4565053e-01
       1.0459770e-01       1.7957946e-04       5.4452145e-01
       1.0532346e-01       1.7902034e-04       5.4339061e-01
       1.0605426e-01       1.7846094e-04       5.4225803e-01
       1.0679013e-01       1.7790128e-04       5.4112374e-01
       1.0753111e-01       1.7734136e-04       5.3998774e-01
       1.0827723e-01       1.7678121e-04       5.3885007e-01
       1.0902852e-01       1.7622082e-04       5.3771072e-01
       1.0978503e-01       1.7566023e-04       5.3656973e-01
       1.1054679e-01       1.7509943e-04       5.3542712e-01
       1.1131383e-01       1.7453844e-04       5.3428289e-01
       1.1208620e-01       1.7397727e-04       5.3313708e-01
       1.1286392e-01       1.7341594e-04       5.3198970e-01
       1.1364705e-01       1.7285446e-04       5.3084076e-01
       1.1443560e-01       1.7229283e-04       5.2969030e-01
       1.1522963e-01       1.7173108e-04       5.2853832e-01
       1.1602916e-01       1.7116921e-04       5.2738484e-01
       1.1683425e-01       1.7060724e-04       5.2622990e-01
       1.1764492e-01       1.7004518e-04       5.2507349e-01
       1.1846121e-01       1.6948304e-04       5.2391566e-01
       1.1928317e-01       1.6892084e-04       5.2275641e-01
       1.2011083e-01       1.6835858e-04       5.2159576e-01
       1.2094424e-01       1.6779629e-04       5.2043373e-01
       1.2178342e-01       1.6723396e-04       5.1927035e-01
       1.2262843e-01       1.6667162e-04       5.1810564e-01
       1.2347931e-01       1.6610928e-04       5.1693961e-01
       1.2433609e-01       1.6554695e-04       5.1577228e-01
       1.2519881e-01       1.6498464e-04       5.1460368e-01
       1.2606752e-01       1.6442236e-04       5.1343382e-01
       1.2694225e-01       1.6386014e-04       5.1226272e-01
       1.2782306e-01       1.6329797e-04       5.1109041e-01
       1.2870997e-01       1.6273587e-04       5.0991691e-01
       1.2960305e-01       1.6217386e-04       5.0874223e-01
       1.3050231e-01       1.6161195e-04       5.0756639e-01
       1.3140782e-01       1.6105015e-04       5.0638943e-01
       1.3231961e-01       1.6048847e-04       5.0521135e-01
       1.3323773e-01       1.5992692e-04       5.0403218e-01
       1.3416222e-01       1.5936552e-04       5.0285193e-01
       1.3509312e-01       1.5880428e-04       5.0167064e-01
       1.3603048e-01       1.5824321e-04       5.0048832e-01
       1.3697434e-01       1.5768233e-04       4.9930498e-01
       1.3792476e-01       1.5712164e-04       4.9812066e-01
       1.3888177e-01       1.5656117e-04       4.9693537e-01
       1.3984542e-01       1.5600091e-04       4.9574914e-01
       1.4081575e-01       1.5544089e-04       4.9456198e-01
       1.4179282e-01       1.5488111e-04       4.9337391e-01
       1.4277667e-01       1.5432159e-04       4.9218497e-01
       1.4376735e-01       1.5376235e-04       4.9099516e-01
       1.4476489e-01       1.5320338e-04       4.8980451e-01
       1.4576936e-01       1.5264471e-04       4.8861304e-01
       1.4678080e-01       1.5208635e-04       4.8742077e-01
       1.4779926e-01       1.5152830e-04       4.8622772e-01
       1.4882479e-01       1.5097059e-04       4.8503392e-01
       1.4985743e-01       1.5041322e-04       4.8383938e-01
       1.5089723e-01       1.4985620e-04       4.8264413e-01
       1.5194425e-01       1.4929955e-04       4.8144819e-01
       1.5299854e-01       1.4874329e-04       4.8025157e-01
       1.5406014e-01       1.4818741e-04       4.7905431e-01
       1.5512910e-01       1.4763194e-04       4.7785642e-01
       1.5620549e-01       1.4707688e-04       4.7665792e-01
       1.5728934e-01       1.4652224e-04       4.7545883e-01
       1.5838071e-01       1.4596805e-04       4.7425919e-01
       1.5947966e-01       1.4541431e-04       4.7305900e-01
       1.6058623e-01       1.4486103e-04       4.7185828e-01
       1.6170048e-01       1.4430822e-04       4.7065707e-01
       1.6282246e-01       1.4375590e-04       4.6945539e-01
       1.6395222e-01       1.4320407e-04       4.6825324e-01
       1.6508983e-01       1.4265276e-04       4.6705066e-01
       1.6623532e-01       1.4210196e-04       4.6584767e-01
       1.6738877e-01       1.4155170e-04       4.6464428e-01
       1.6855022e-01       1.4100197e-04       4.6344052e-01
       1.6971973e-01       1.4045281e-04       4.6223642e-01
       1.7089735e-01       1.3990420e-04       4.6103199e-01
       1.7208314e-01       1.3935618e-04       4.5982725e-01
       1.7327717e-01       1.3880874e-04       4.5862222e-01
       1.7447947e-01       1.3826191e-04       4.5741693e-01
       1.7569012e-01       1.3771568e-04       4.5621140e-01
       1.7690917e-01       1.3717007e-04       4.5500565e-01
       1.7813668e-01       1.3662510e-04       4.5379971e-01
       1.7937270e-01       1.3608077e-04       4.5259358e-01
       1.8061730e-01       1.3553710e-04       4.5138730e-01
       1.8187054e-01       1.3499409e-04       4.5018088e-01
       1.8313247e-01       1.3445175e-04       4.4897435e-01
       1.8440316e-01       1.3391011e-04       4.4776772e-01
       1.8568267e-01       1.3336916e-04       4.4656103e-01
       1.8697105e-01       1.3282892e-04       4.4535428e-01
       1.8826837e-01       1.3228940e-04       4.4414751e-01
       1.8957470e-01       1.3175060e-04       4.4294073e-01
       1.9089009e-01       1.3121255e-04       4.4173397e-01
       1.9221460e-01       1.3067525e-04       4.4052724e-01
       1.9354831e-01       1.3013870e-04       4.3932056e-01
       1.9489127e-01       1.2960293e-04       4.3811397e-01
       1.9624355e-01       1.2906794e-04       4.3690747e-01
       1.9760521e-01       1.2853374e-04       4.3570109e-01
       1.9897632e-01       1.2800034e-04       4.3449485e-01
       2.0035694e-01       1.2746776e-04       4.3328878e-01
       2.0174715e-01       1.2693599e-04       4.3208288e-01
       2.0314700e-01       1.2640506e-04       4.3087720e-01
       2.0455656e-01       1.2587496e-04       4.2967173e-01
       2.0597590e-01       1.2534572e-04       4.2846651e-01
       2.0740509e-01       1.2481734e-04       4.2726156e-01
       2.0884420e-01       1.2428982e-04       4.2605689e-01
       2.1029329e-01       1.2376319e-04       4.2485253e-01
       2.1175244e-01       1.2323744e-04       4.2364849e-01
       2.1322171e-01       1.2271260e-04       4.2244481e-01
       2.1470118e-01       1.2218866e-04       4.2124150e-01
       2.1619091e-01       1.2166564e-04       4.2003857e-01
       2.1769098e-01       1.2114354e-04       4.1883605e-01
       2.1920146e-01       1.2062238e-04       4.1763397e-01
       2.2072242e-01       1.2010217e-04       4.1643233e-01
       2.2225393e-01       1.1958291e-04       4.1523117e-01
       2.2379606e-01       1.1906461e-04       4.1403050e-01
       2.2534890e-01       1.1854728e-04       4.1283034e-01
       2.2691252e-01       1.1803093e-04       4.1163071e-01
       2.2848698e-01       1.1751557e-04       4.1043163e-01
       2.3007237e-01       1.1700121e-04       4.0923312e-01
       2.3166875e-01       1.1648785e-04       4.0803520e-01
       2.3327622e-01       1.1597551e-04       4.0683790e-01
       2.3489483e-01       1.1546419e-04       4.0564122e-01
       2.3652468e-01       1.1495390e-04       4.0444520e-01
       2.3816584e-01       1.1444465e-04       4.0324984e-01
       2.3981839e-01       1.1393645e-04       4.0205518e-01
       2.4148240e-01       1.1342930e-04       4.0086122e-01
       2.4315795e-01       1.1292322e-04       3.9966799e-01
       2.4484514e-01       1.1241820e-04       3.9847551e-01
       2.4654403e-01       1.1191427e-04       3.9728380e-01
       2.4825471e-01       1.1141142e-04       3.9609287e-01
       2.4997725e-01       1.1090967e-04       3.9490275e-01
       2.5171175e-01       1.1040902e-04       3.9371346e-01
       2.5345829e-01       1.0990948e-04       3.9252500e-01
       2.5521694e-01       1.0941106e-04       3.9133741e-01
       2.5698780e-01       1.0891376e-04       3.9015070e-01
       2.5877094e-01       1.0841760e-04       3.8896489e-01
       2.6056646e-01       1.0792257e-04       3.8778000e-01
       2.6237443e-01       1.0742869e-04       3.8659604e-01
       2.6419495e-01       1.0693596e-04       3.8541304e-01
       2.6602810e-01       1.0644440e-04       3.8423102e-01
       2.6787398e-01       1.0595400e-04       3.8304998e-01
       2.6973265e-01       1.0546477e-04       3.8186996e-01
       2.7160423e-01       1.0497673e-04       3.8069096e-01
       2.7348879e-01       1.0448987e-04       3.7951301e-01
       2.7538643e-01       1.0400421e-04       3.7833613e-01
       2.7729723e-01       1.0351974e-04       3.7716033e-01
       2.7922130e-01       1.0303649e-04       3.7598562e-01
       2.8115871e-01       1.0255444e-04       3.7481204e-01
       2.8310957e-01       1.0207362e-04       3.7363959e-01
       2.8507396e-01       1.0159402e-04       3.7246829e-01
       2.8705198e-01       1.0111565e-04       3.7129817e-01
       2.8904373e-01       1.0063852e-04       3.7012923e-01
       2.9104930e-01       1.0016264e-04       3.6896149e-01
       2.9306878e-01       9.9687998e-05       3.6779498e-01
       2.9510228e-01       9.9214616e-05       3.6662970e-01
       2.9714989e-01       9.8742494e-05       3.6546569e-01
       2.9921170e-01       9.8271639e-05       3.6430294e-01
       3.0128782e-01       9.7802055e-05       3.6314148e-01
       3.0337834e-01       9.7333748e-05       3.6198133e-01
       3.0548338e-01       9.6866723e-05       3.6082250e-01
       3.0760301e-01       9.6400986e-05       3.5966502e-01
       3.0973736e-01       9.5936542e-05       3.5850888e-01
       3.1188651e-01       9.5473395e-05       3.5735412e-01
       3.1405057e-01       9.5011552e-05       3.5620074e-01
       3.1622966e-01       9.4551016e-05       3.5504877e-01
       3.1842386e-01       9.4091793e-05       3.5389822e-01
       3.2063328e-01       9.3633887e-05       3.5274910e-01
       3.2285804e-01       9.3177303e-05       3.5160143e-01
       3.2509823e-01       9.2722045e-05       3.5045523e-01
       3.2735397e-01       9.2268119e-05       3.4931051e-01
       3.2962536e-01       9.1815527e-05       3.4816729e-01
       3.3191251e-01       9.1364276e-05       3.4702558e-01
       3.3421552e-01       9.0914369e-05       3.4588540e-01
       3.3653452e-01       9.0465810e-05       3.4474676e-01
       3.3886961e-01       9.0018603e-05       3.4360968e-01
       3.4122090e-01       8.9572753e-05       3.4247417e-01
       3.4358851e-01       8.9128262e-05       3.4134025e-01
       3.4597254e-01       8.8685136e-05       3.4020793e-01
       3.4837312e-01       8.8243378e-05       3.3907723e-01
       3.5079035e-01       8.7802991e-05       3.3794816e-01
       3.5322436e-01       8.7363979e-05       3.3682073e-01
       3.5567525e-01       8.6926346e-05       3.3569497e-01
       3.5814315e-01       8.6490095e-05       3.3457087e-01
       3.6062817e-01       8.6055229e-05       3.3344846e-01
       3.6313044e-01       8.5621752e-05       3.3232776e-01
       3.6565007e-01       8.5189667e-05       3.3120877e-01
       3.6818718e-01       8.4758977e-05       3.3009151e-01
       3.7074189e-01       8.4329685e-05       3.2897599e-01
       3.7331434e-01       8.3901794e-05       3.2786222e-01
       3.7590463e-01       8.3475308e-05       3.2675023e-01
       3.7851289e-01       8.3050227e-05       3.2564001e-01
       3.8113925e-01       8.2626557e-05       3.2453159e-01
       3.8378384e-01       8.2204298e-05       3.2342498e-01
       3.8644677e-01       8.1783454e-05       3.2232019e-01
       3.8912818e-01       8.1364028e-05       3.2121723e-01
       3.9182820e-01       8.0946021e-05       3.2011612e-01
       3.9454695e-01       8.0529436e-05       3.1901687e-01
       3.9728457e-01       8.0114275e-05       3.1791949e-01
       4.0004118e-01       7.9700541e-05       3.1682399e-01
       4.0281692e-01       7.9288235e-05       3.1573038e-01
       4.0561191e-01       7.8877360e-05       3.1463869e-01
       4.0842631e-01       7.8467917e-05       3.1354891e-01
       4.1126023e-01       7.8059909e-05       3.1246106e-01
       4.1411381e-01       7.7653338e-05       3.1137516e-01
       4.1698719e-01       7.7248204e-05       3.1029121e-01
       4.1988051e-01       7.6844510e-05       3.0920922e-01
       4.2279391e-01       7.6442257e-05       3.0812922e-01
       4.2572752e-01       7.6041448e-05       3.0705120e-01
       4.2868149e-01       7.5642082e-05       3.0597518e-01
       4.3165595e-01       7.5244162e-05       3.0490117e-01
       4.3465105e-01       7.4847690e-05       3.0382918e-01
       4.3766693e-01       7.4452665e-05       3.0275922e-01
       4.4070374e-01       7.4059090e-05       3.0169131e-01
       4.4376162e-01       7.3666966e-05       3.0062544e-01
       4.4684072e-01       7.3276293e-05       2.9956164e-01
       4.4994119e-01       7.2887073e-05       2.9849992e-01
       4.5306316e-01       7.2499306e-05       2.9744028e-01
       4.5620680e-01       7.2112993e-05       2.9638273e-01
       4.5937225e-01       7.1728135e-05       2.9532729e-01
       4.6255967e-01       7.1344733e-05       2.9427395e-01
       4.6576920e-01       7.0962788e-05       2.9322275e-01
       4.6900100e-01       7.0582299e-05       2.9217367e-01
       4.7225522e-01       7.0203268e-05       2.9112674e-01
       4.7553203e-01       6.9825694e-05       2.9008196e-01
       4.7883157e-01       6.9449578e-05       2.8903934e-01
       4.8215401e-01       6.9074921e-05       2.8799889e-01
       4.8549949e-01       6.8701723e-05       2.8696062e-01
       4.8886820e-01       6.8329983e-05       2.8592453e-01
       4.9226027e-01       6.7959703e-05       2.8489065e-01
       4.9567589e-01       6.7590881e-05       2.8385897e-01
       4.9911520e-01       6.7223518e-05       2.8282950e-01
       5.0257837e-01       6.6857614e-05       2.8180225e-01
       5.0606558e-01       6.6493168e-05       2.8077724e-01
       5.0957698e-01       6.6130181e-05       2.7975446e-01
       5.1311275e-01       6.5768653e-05       2.7873393e-01
       5.1667305e-01       6.5408582e-05       2.7771566e-01
       5.2025805e-01       6.5049968e-05       2.7669965e-01
       5.2386793e-01       6.4692812e-05       2.7568591e-01
       5.2750286e-01       6.4337112e-05       2.7467444e-01
       5.3116301e-01       6.3982867e-05       2.7366527e-01
       5.3484855e-01       6.3630079e-05       2.7265838e-01
       5.3855967e-01       6.3278744e-05       2.7165380e-01
       5.4229654e-01       6.2928864e-05       2.7065152e-01
       5.4605933e-01       6.2580436e-05       2.6965156e-01
       5.4984824e-01       6.2233461e-05       2.6865392e-01
       5.5366343e-01       6.1887936e-05       2.6765861e-01
       5.5750510e-01       6.1543862e-05       2.6666563e-01
       5.6137342e-01       6.1201238e-05       2.6567500e-01
       5.6526858e-01       6.0860061e-05       2.6468671e-01
       5.6919077e-01       6.0520331e-05       2.6370078e-01
       5.7314018e-01       6.0182048e-05       2.6271721e-01
       5.7711699e-01       5.9845208e-05       2.6173600e-01
       5.8112139e-01       5.9509812e-05       2.6075717e-01
       5.8515358e-01       5.9175858e-05       2.5978072e-01
       5.8921374e-01       5.8843345e-05       2.5880666e-01
       5.9330208e-01       5.8512270e-05       2.5783498e-01
       5.9741878e-01       5.8182633e-05       2.5686571e-01
       6.0156405e-01       5.7854432e-05       2.5589883e-01
       6.0573808e-01       5.7527666e-05       2.5493436e-01
       6.0994108e-01       5.7202332e-05       2.5397231e-01
       6.1417323e-01       5.6878429e-05       2.5301267e-01
       6.1843475e-01       5.6555956e-05       2.5205546e-01
       6.2272584e-01       5.6234910e-05       2.5110068e-01
       6.2704671e-01       5.5915290e-05       2.5014832e-01
       6.3139756e-01       5.5597093e-05       2.4919841e-01
       6.3577859e-01       5.5280318e-05       2.4825094e-01
       6.4019002e-01       5.4964964e-05       2.4730592e-01
       6.4463207e-01       5.4651027e-05       2.4636335e-01
       6.4910493e-01       5.4338506e-05       2.4542323e-01
       6.5360883e-01       5.4027398e-05       2.4448558e-01
       6.5814398e-01       5.3717702e-05       2.4355039e-01
       6.6271060e-01       5.3409415e-05       2.4261767e-01
       6.6730890e-01       5.3102536e-05       2.4168742e-01
       6.7193911e-01       5.2797061e-05       2.4075965e-01
       6.7660145e-01       5.2492988e-05       2.3983436e-01
       6.8129614e-01       5.2190316e-05       2.3891156e-01
       6.8602340e-01       5.1889041e-05       2.3799124e-01
       6.9078347e-01       5.1589162e-05       2.3707342e-01
       6.9557656e-01       5.1290675e-05       2.3615809e-01
       7.0040291e-01       5.0993579e-05       2.3524525e-01
       7.0526275e-01       5.0697870e-05       2.3433492e-01
       7.1015630e-01       5.0403546e-05       2.3342710e-01
       7.1508382e-01       5.0110604e-05       2.3252178e-01
       7.2004552e-01       4.9819043e-05       2.3161897e-01
       7.2504165e-01       4.9528858e-05       2.3071868e-01
       7.3007245e-01       4.9240047e-05       2.2982090e-01
       7.3513815e-01       4.8952608e-05       2.2892564e-01
       7.4023900e-01       4.8666538e-05       2.2803290e-01
       7.4537525e-01       4.8381833e-05       2.2714269e-01
       7.5054713e-01       4.8098491e-05       2.2625500e-01
       7.5575490e-01       4.7816509e-05       2.2536984e-01
       7.6099881e-01       4.7535884e-05       2.2448721e-01
       7.6627910e-01       4.7256614e-05       2.2360711e-01
       7.7159603e-01       4.6978694e-05       2.2272955e-01
       7.7694985e-01       4.6702122e-05       2.2185452e-01
       7.8234082e-01       4.6426895e-05       2.2098204e-01
       7.8776919e-01       4.6153009e-05       2.2011209e-01
       7.9323523e-01       4.5880463e-05       2.1924468e-01
       7.9873920e-01       4.5609251e-05       2.1837982e-01
       8.0428136e-01       4.5339372e-05       2.1751750e-01
       8.0986197e-01       4.5070822e-05       2.1665773e-01
       8.1548130e-01       4.4803597e-05       2.1580051e-01
       8.2113963e-01       4.4537695e-05       2.1494584e-01
       8.2683721e-01       4.4273112e-05       2.1409371e-01
       8.3257433e-01       4.4009844e-05       2.1324414e-01
       8.3835126e-01       4.3747889e-05       2.1239712e-01
       8.4416827e-01       4.3487243e-05       2.1155265e-01
       8.5002564e-01       4.3227902e-05       2.1071073e-01
       8.5592365e-01       4.2969864e-05       2.0987137e-01
       8.6186259e-01       4.2713124e-05       2.0903456e-01
       8.6784274e-01       4.2457679e-05       2.0820031e-01
       8.7386438e-01       4.2203525e-05       2.0736862e-01
       8.7992780e-01       4.1950660e-05       2.0653948e-01
       8.8603330e-01       4.1699079e-05       2.0571290e-01
       8.9218116e-01       4.1448778e-05       2.0488887e-01
       8.9837167e-01       4.1199755e-05       2.0406740e-01
       9.0460514e-01       4.0952006e-05       2.0324849e-01
       9.1088186e-01       4.0705526e-05       2.0243214e-01
       9.1720214e-01       4.0460313e-05       2.0161834e-01
       9.2356626e-01       4.0216362e-05       2.0080710e-01
       9.2997455e-01       3.9973669e-05       1.9999842e-01
       9.3642730e-01       3.9732232e-05       1.9919229e-01
       9.4292483e-01       3.9492046e-05       1.9838872e-01
       9.4946743e-01       3.9253108e-05       1.9758770e-01
       9.5605544e-01       3.9015413e-05       1.9678924e-01
       9.6268915e-01       3.8778958e-05       1.9599334e-01
       9.6936890e-01       3.8543739e-05       1.9519998e-01
       9.7609499e-01       3.8309752e-05       1.9440918e-01
       9.8286776e-01       3.8076994e-05       1.9362094e-01
       9.8968751e-01       3.7845460e-05       1.9283524e-01
       9.9655459e-01       3.7615146e-05       1.9205209e-01
